<?xml version="1.0" encoding="UTF-8" standalone="no"?>
<!-- Created with Inkscape (http://www.inkscape.org/) -->

<svg
   xmlns:dc="http://purl.org/dc/elements/1.1/"
   xmlns:cc="http://creativecommons.org/ns#"
   xmlns:rdf="http://www.w3.org/1999/02/22-rdf-syntax-ns#"
   xmlns:svg="http://www.w3.org/2000/svg"
   xmlns="http://www.w3.org/2000/svg"
   xmlns:xlink="http://www.w3.org/1999/xlink"
   xmlns:sodipodi="http://sodipodi.sourceforge.net/DTD/sodipodi-0.dtd"
   xmlns:inkscape="http://www.inkscape.org/namespaces/inkscape"
   width="370"
   height="570"
   id="svg2"
   sodipodi:version="0.32"
   inkscape:version="0.92.3 (2405546, 2018-03-11)"
   sodipodi:docname="bridge.svg"
   version="1.0"
   inkscape:output_extension="org.inkscape.output.svg.inkscape"
   sodipodi:modified="true">
  <title
     id="title3170">Схема материнской платы</title>
  <defs
     id="defs4">
    <inkscape:perspective
       sodipodi:type="inkscape:persp3d"
       inkscape:vp_x="0 : 285 : 1"
       inkscape:vp_y="0 : 1000 : 0"
       inkscape:vp_z="370 : 285 : 1"
       inkscape:persp3d-origin="185 : 190 : 1"
       id="perspective189" />
    <linearGradient
       inkscape:collect="always"
       id="linearGradient4180">
      <stop
         style="stop-color: rgb(0, 0, 0); stop-opacity: 1;"
         offset="0"
         id="stop4182" />
      <stop
         style="stop-color: rgb(0, 0, 0); stop-opacity: 0;"
         offset="1"
         id="stop4184" />
    </linearGradient>
    <linearGradient
       inkscape:collect="always"
       id="linearGradient4172">
      <stop
         style="stop-color: rgb(0, 0, 0); stop-opacity: 1;"
         offset="0"
         id="stop4174" />
      <stop
         style="stop-color: rgb(0, 0, 0); stop-opacity: 0;"
         offset="1"
         id="stop4176" />
    </linearGradient>
    <linearGradient
       inkscape:collect="always"
       id="linearGradient4164">
      <stop
         style="stop-color: rgb(0, 0, 0); stop-opacity: 1;"
         offset="0"
         id="stop4166" />
      <stop
         style="stop-color: rgb(0, 0, 0); stop-opacity: 0;"
         offset="1"
         id="stop4168" />
    </linearGradient>
    <linearGradient
       inkscape:collect="always"
       id="linearGradient4156">
      <stop
         style="stop-color: rgb(0, 0, 0); stop-opacity: 1;"
         offset="0"
         id="stop4158" />
      <stop
         style="stop-color: rgb(0, 0, 0); stop-opacity: 0;"
         offset="1"
         id="stop4160" />
    </linearGradient>
    <linearGradient
       inkscape:collect="always"
       id="linearGradient4140">
      <stop
         style="stop-color: rgb(0, 0, 0); stop-opacity: 1;"
         offset="0"
         id="stop4142" />
      <stop
         style="stop-color: rgb(0, 0, 0); stop-opacity: 0;"
         offset="1"
         id="stop4144" />
    </linearGradient>
    <linearGradient
       inkscape:collect="always"
       id="linearGradient4132">
      <stop
         style="stop-color: rgb(0, 0, 0); stop-opacity: 1;"
         offset="0"
         id="stop4134" />
      <stop
         style="stop-color: rgb(0, 0, 0); stop-opacity: 0;"
         offset="1"
         id="stop4136" />
    </linearGradient>
    <linearGradient
       inkscape:collect="always"
       id="linearGradient4124">
      <stop
         style="stop-color: rgb(0, 0, 0); stop-opacity: 1;"
         offset="0"
         id="stop4126" />
      <stop
         style="stop-color: rgb(0, 0, 0); stop-opacity: 0;"
         offset="1"
         id="stop4128" />
    </linearGradient>
    <linearGradient
       inkscape:collect="always"
       id="linearGradient4116">
      <stop
         style="stop-color: rgb(0, 0, 0); stop-opacity: 1;"
         offset="0"
         id="stop4118" />
      <stop
         style="stop-color: rgb(0, 0, 0); stop-opacity: 0;"
         offset="1"
         id="stop4120" />
    </linearGradient>
    <linearGradient
       id="linearGradient6511">
      <stop
         style="stop-color: rgb(0, 0, 0); stop-opacity: 1;"
         offset="0"
         id="stop6513" />
      <stop
         id="stop7524"
         offset="0.81818181"
         style="stop-color: rgb(0, 0, 0); stop-opacity: 0.498039;" />
      <stop
         style="stop-color: rgb(0, 0, 0); stop-opacity: 0;"
         offset="1"
         id="stop6515" />
    </linearGradient>
    <linearGradient
       inkscape:collect="always"
       xlink:href="#linearGradient6511"
       id="linearGradient2892"
       gradientUnits="userSpaceOnUse"
       gradientTransform="matrix(1.28571, 0, 0, 0.499999, -172.103, 128.583)"
       x1="255.1181"
       y1="382.67715"
       x2="304.7244"
       y2="382.67715" />
    <linearGradient
       inkscape:collect="always"
       xlink:href="#linearGradient6511"
       id="linearGradient2894"
       gradientUnits="userSpaceOnUse"
       gradientTransform="matrix(1.28571, 0, 0, 0.499999, -172.103, 139.213)"
       x1="255.1181"
       y1="382.67715"
       x2="304.7244"
       y2="382.67715" />
    <linearGradient
       inkscape:collect="always"
       xlink:href="#linearGradient6511"
       id="linearGradient2896"
       gradientUnits="userSpaceOnUse"
       gradientTransform="matrix(1.28571, 0, 0, 0.499999, -172.103, 160.473)"
       x1="255.1181"
       y1="382.67715"
       x2="304.7244"
       y2="382.67715" />
    <linearGradient
       inkscape:collect="always"
       xlink:href="#linearGradient6511"
       id="linearGradient2898"
       gradientUnits="userSpaceOnUse"
       gradientTransform="matrix(1.28571, 0, 0, 0.499999, -172.103, 149.843)"
       x1="255.1181"
       y1="382.67715"
       x2="304.7244"
       y2="382.67715" />
    <linearGradient
       inkscape:collect="always"
       xlink:href="#linearGradient6511"
       id="linearGradient2900"
       gradientUnits="userSpaceOnUse"
       gradientTransform="matrix(1.41383, 0, 0, 0.499999, -213.404, 136.418)"
       x1="255.1181"
       y1="382.67715"
       x2="304.7244"
       y2="382.67715" />
    <linearGradient
       inkscape:collect="always"
       xlink:href="#linearGradient6511"
       id="linearGradient2902"
       gradientUnits="userSpaceOnUse"
       gradientTransform="matrix(1.41383, 0, 0, 0.499999, -213.404, 147.047)"
       x1="255.1181"
       y1="382.67715"
       x2="304.7244"
       y2="382.67715" />
    <linearGradient
       inkscape:collect="always"
       xlink:href="#linearGradient6511"
       id="linearGradient2904"
       gradientUnits="userSpaceOnUse"
       gradientTransform="matrix(1.41383, 0, 0, 0.499999, -213.404, 168.307)"
       x1="255.1181"
       y1="382.67715"
       x2="304.7244"
       y2="382.67715" />
    <linearGradient
       inkscape:collect="always"
       xlink:href="#linearGradient6511"
       id="linearGradient2906"
       gradientUnits="userSpaceOnUse"
       gradientTransform="matrix(1.41383, 0, 0, 0.499999, -213.404, 157.677)"
       x1="255.1181"
       y1="382.67715"
       x2="304.7244"
       y2="382.67715" />
    <linearGradient
       inkscape:collect="always"
       xlink:href="#linearGradient6511"
       id="linearGradient2908"
       gradientUnits="userSpaceOnUse"
       gradientTransform="matrix(0.714286, 0, 0, 0.499999, 111.867, 36.4569)"
       x1="255.1181"
       y1="382.67715"
       x2="304.7244"
       y2="382.67715" />
    <linearGradient
       inkscape:collect="always"
       xlink:href="#linearGradient6511"
       id="linearGradient2958"
       gradientUnits="userSpaceOnUse"
       gradientTransform="matrix(0.714286, 0, 0, 0.499999, 111.867, 44.2915)"
       x1="255.1181"
       y1="382.67715"
       x2="304.7244"
       y2="382.67715" />
    <linearGradient
       inkscape:collect="always"
       xlink:href="#linearGradient4116"
       id="linearGradient4122"
       x1="155.90547"
       y1="327.75591"
       x2="219.68499"
       y2="327.75591"
       gradientUnits="userSpaceOnUse" />
    <linearGradient
       inkscape:collect="always"
       xlink:href="#linearGradient4124"
       id="linearGradient4130"
       x1="155.90547"
       y1="338.38582"
       x2="219.68499"
       y2="338.38582"
       gradientUnits="userSpaceOnUse" />
    <linearGradient
       inkscape:collect="always"
       xlink:href="#linearGradient4132"
       id="linearGradient4138"
       x1="155.90547"
       y1="349.01576"
       x2="219.68499"
       y2="349.01576"
       gradientUnits="userSpaceOnUse" />
    <linearGradient
       inkscape:collect="always"
       xlink:href="#linearGradient4140"
       id="linearGradient4146"
       x1="155.90547"
       y1="359.64568"
       x2="219.68499"
       y2="359.64568"
       gradientUnits="userSpaceOnUse" />
    <linearGradient
       inkscape:collect="always"
       xlink:href="#linearGradient4156"
       id="linearGradient4162"
       x1="155.90547"
       y1="327.75591"
       x2="219.68499"
       y2="327.75591"
       gradientUnits="userSpaceOnUse" />
    <linearGradient
       inkscape:collect="always"
       xlink:href="#linearGradient4164"
       id="linearGradient4170"
       x1="155.90547"
       y1="338.38582"
       x2="219.68499"
       y2="338.38582"
       gradientUnits="userSpaceOnUse" />
    <linearGradient
       inkscape:collect="always"
       xlink:href="#linearGradient4172"
       id="linearGradient4178"
       x1="155.90547"
       y1="349.01576"
       x2="219.68499"
       y2="349.01576"
       gradientUnits="userSpaceOnUse" />
    <linearGradient
       inkscape:collect="always"
       xlink:href="#linearGradient4180"
       id="linearGradient4186"
       x1="155.90547"
       y1="359.64568"
       x2="219.68499"
       y2="359.64568"
       gradientUnits="userSpaceOnUse" />
    <inkscape:perspective
       id="perspective3027"
       inkscape:persp3d-origin="0.5 : 0.33333333 : 1"
       inkscape:vp_z="1 : 0.5 : 1"
       inkscape:vp_y="0 : 1000 : 0"
       inkscape:vp_x="0 : 0.5 : 1"
       sodipodi:type="inkscape:persp3d" />
    <inkscape:perspective
       id="perspective3066"
       inkscape:persp3d-origin="0.5 : 0.33333333 : 1"
       inkscape:vp_z="1 : 0.5 : 1"
       inkscape:vp_y="0 : 1000 : 0"
       inkscape:vp_x="0 : 0.5 : 1"
       sodipodi:type="inkscape:persp3d" />
    <inkscape:perspective
       id="perspective3180"
       inkscape:persp3d-origin="0.5 : 0.33333333 : 1"
       inkscape:vp_z="1 : 0.5 : 1"
       inkscape:vp_y="0 : 1000 : 0"
       inkscape:vp_x="0 : 0.5 : 1"
       sodipodi:type="inkscape:persp3d" />
  </defs>
  <sodipodi:namedview
     id="base"
     pagecolor="#ffffff"
     bordercolor="#666666"
     borderopacity="1.0"
     gridtolerance="10000"
     guidetolerance="10"
     objecttolerance="10"
     inkscape:pageopacity="0.0"
     inkscape:pageshadow="2"
     inkscape:zoom="1.8176596"
     inkscape:cx="160.22047"
     inkscape:cy="296.55396"
     inkscape:document-units="px"
     inkscape:current-layer="g3966"
     showgrid="false"
     inkscape:grid-points="true"
     grid_units="cm"
     inkscape:window-width="1920"
     inkscape:window-height="1025"
     inkscape:window-x="1104"
     inkscape:window-y="2187"
     showguides="true"
     inkscape:window-maximized="1"
     inkscape:snap-text-baseline="false">
    <inkscape:grid
       id="GridFromPre046Settings"
       type="xygrid"
       originx="0"
       originy="0"
       spacingx="3.7795276"
       spacingy="3.7795276"
       color="#0000ff"
       empcolor="#0000ff"
       opacity="0.2"
       empopacity="0.4"
       empspacing="5"
       units="cm"
       visible="true"
       enabled="true"
       snapvisiblegridlinesonly="true" />
  </sodipodi:namedview>
  <metadata
     id="metadata7">
    <rdf:RDF>
      <cc:Work
         rdf:about="">
        <dc:format>image/svg+xml</dc:format>
        <dc:type
           rdf:resource="http://purl.org/dc/dcmitype/StillImage" />
        <dc:title>Схема материнской платы</dc:title>
        <dc:date>18 июля 2010 года</dc:date>
        <dc:creator>
          <cc:Agent>
            <dc:title>Moxfyre</dc:title>
          </cc:Agent>
        </dc:creator>
        <dc:source>commons.wikimedia.org</dc:source>
        <dc:language>ru</dc:language>
        <dc:subject>
          <rdf:Bag>
            <rdf:li>северный мост</rdf:li>
            <rdf:li>южный мост</rdf:li>
            <rdf:li>шина</rdf:li>
            <rdf:li>генратор тактовых импульсов</rdf:li>
            <rdf:li>процессор</rdf:li>
            <rdf:li>ЦПУ</rdf:li>
            <rdf:li>ПЗУ</rdf:li>
            <rdf:li>ППЗУ</rdf:li>
            <rdf:li>Память</rdf:li>
            <rdf:li>PCI</rdf:li>
            <rdf:li>Чипсет</rdf:li>
            <rdf:li>LPC</rdf:li>
            <rdf:li>PCI Express</rdf:li>
            <rdf:li>IDE</rdf:li>
            <rdf:li>SATA</rdf:li>
            <rdf:li>USB</rdf:li>
            <rdf:li>Ethernet</rdf:li>
          </rdf:Bag>
        </dc:subject>
        <dc:coverage>IT</dc:coverage>
        <dc:description>Условная схема расположения объектов на современной материнской плате</dc:description>
        <dc:contributor>
          <cc:Agent>
            <dc:title>DarkSTALKER (aka JIесник)</dc:title>
          </cc:Agent>
        </dc:contributor>
        <cc:license
           rdf:resource="http://creativecommons.org/licenses/by-sa/3.0/" />
      </cc:Work>
      <cc:License
         rdf:about="http://creativecommons.org/licenses/by-sa/3.0/">
        <cc:permits
           rdf:resource="http://creativecommons.org/ns#Reproduction" />
        <cc:permits
           rdf:resource="http://creativecommons.org/ns#Distribution" />
        <cc:requires
           rdf:resource="http://creativecommons.org/ns#Notice" />
        <cc:requires
           rdf:resource="http://creativecommons.org/ns#Attribution" />
        <cc:permits
           rdf:resource="http://creativecommons.org/ns#DerivativeWorks" />
        <cc:requires
           rdf:resource="http://creativecommons.org/ns#ShareAlike" />
      </cc:License>
    </rdf:RDF>
  </metadata>
  <g
     inkscape:label="Layer 1"
     inkscape:groupmode="layer"
     id="layer1"
     transform="translate(70.8662, 46.063)">
    <g
       id="g3966"
       transform="translate(0, 6.85039)">
      <path
         id="path13778-8"
         d="m 75.283828,314.96185 -124.13342,0"
         style="font-style:normal;font-variant:normal;font-weight:normal;font-stretch:normal;font-family:'DejaVu Sans';fill:none;stroke:#000000;stroke-width:6.17085981;stroke-linecap:butt;stroke-linejoin:miter;stroke-miterlimit:4;stroke-dasharray:none;stroke-opacity:1"
         inkscape:connector-curvature="0" />
      <path
         id="path11966"
         d="M 114.62512,311.31972 L 114.62512,485.2703 L 93.111644,485.2703"
         style="font-style: normal; font-variant: normal; font-weight: normal; font-stretch: normal; fill: none; fill-opacity: 0.75; fill-rule: evenodd; stroke: rgb(0, 0, 0); stroke-width: 6.104; stroke-linecap: butt; stroke-linejoin: miter; stroke-miterlimit: 4; stroke-dasharray: none; stroke-opacity: 1; font-family: DejaVu Sans;" />
      <g
         transform="translate(7.83465)"
         style="font-style: normal; font-variant: normal; font-weight: normal; font-stretch: normal; font-family: DejaVu Sans;"
         id="g12615">
        <path
           style="font-style: normal; font-variant: normal; font-weight: normal; font-stretch: normal; fill: none; fill-rule: evenodd; stroke: rgb(0, 0, 0); stroke-width: 0.972633; stroke-linecap: butt; stroke-linejoin: miter; stroke-miterlimit: 4; stroke-dasharray: 2.9179, 0.972633; stroke-dashoffset: 0pt; stroke-opacity: 1; font-family: DejaVu Sans;"
           d="M 99.225138,38.490068 L 28.832727,38.490068"
           id="path11642" />
        <path
           style="font-style: normal; font-variant: normal; font-weight: normal; font-stretch: normal; fill: none; fill-rule: evenodd; stroke: rgb(0, 0, 0); stroke-width: 0.981149; stroke-linecap: butt; stroke-linejoin: miter; stroke-miterlimit: 4; stroke-dasharray: 2.94345, 0.981149; stroke-dashoffset: 0pt; stroke-opacity: 1; font-family: DejaVu Sans;"
           d="M 100.84559,24.038726 L 100.84559,95.669297"
           id="path12613" />
      </g>
      <path
         style="font-style: normal; font-variant: normal; font-weight: normal; font-stretch: normal; fill: none; fill-opacity: 0.75; fill-rule: evenodd; stroke: rgb(0, 0, 0); stroke-width: 6.22549; stroke-linecap: butt; stroke-linejoin: miter; stroke-miterlimit: 4; stroke-dasharray: none; stroke-opacity: 1; font-family: DejaVu Sans;"
         d="M -45.315009,148.81888 L 81.343084,148.81888"
         id="path10022" />
      <path
         id="path8188"
         d="M 149.55282,148.81888 L 284.21256,148.81888"
         style="font-style: normal; font-variant: normal; font-weight: normal; font-stretch: normal; fill: none; fill-opacity: 0.75; fill-rule: evenodd; stroke: rgb(0, 0, 0); stroke-width: 5.61063; stroke-linecap: butt; stroke-linejoin: miter; stroke-miterlimit: 4; stroke-dasharray: none; stroke-opacity: 1; font-family: DejaVu Sans;" />
      <g
         style="font-style: normal; font-variant: normal; font-weight: normal; font-stretch: normal; font-family: DejaVu Sans;"
         transform="translate(7.8346, -53.1496)"
         id="g7264">
        <desc
           id="desc3150">исполнитель машинных инструкций, часть аппаратного обеспечения компьютера или программируемого логического контроллера; отвечает за выполнение операций, заданных программами</desc>
        <title
           id="title3148">ЦПУ</title>
        <rect
           rx="9.130435"
           style="font-style: normal; font-variant: normal; font-weight: normal; font-stretch: normal; fill: rgb(80, 80, 80); fill-opacity: 1; font-family: DejaVu Sans;"
           id="rect2753"
           width="70.866142"
           height="70.866142"
           x="70.866142"
           y="7.0865936"
           ry="9.130435" />
        <text
           id="text2616"
           y="46.887798"
           x="106.487"
           style="font-style:normal;font-variant:normal;font-weight:normal;font-stretch:normal;line-height:0%;font-family:'DejaVu Sans';text-align:center;text-anchor:middle;fill:#ffffff;fill-opacity:1"
           xml:space="preserve"><tspan
             y="46.887798"
             x="106.487"
             id="tspan2618"
             sodipodi:role="line"
             style="line-height:1.25">ЦПУ</tspan></text>
        <text
           id="text2616-8"
           y="99.166473"
           x="101.80254"
           style="font-style:normal;font-variant:normal;font-weight:normal;font-stretch:normal;line-height:0%;font-family:'DejaVu Sans';text-align:center;text-anchor:middle;fill:#ffffff;fill-opacity:1"
           xml:space="preserve"><tspan
             y="99.166473"
             x="101.80254"
             id="tspan2618-2"
             sodipodi:role="line"
             style="line-height:1.25">ЦПУ</tspan></text>
      </g>
      <rect
         y="28.346434"
         x="110.59056"
         height="14.173228"
         width="0"
         id="rect2777"
         style="font-style: normal; font-variant: normal; font-weight: normal; font-stretch: normal; fill: rgb(253, 255, 160); fill-opacity: 0.75; font-family: DejaVu Sans;" />
      <path
         id="path7271"
         d="M 114.13386,24.803155 L 114.13386,112.55333"
         style="font-style: normal; font-variant: normal; font-weight: normal; font-stretch: normal; fill: none; fill-opacity: 0.75; fill-rule: evenodd; stroke: rgb(0, 0, 0); stroke-width: 7.86846; stroke-linecap: butt; stroke-linejoin: miter; stroke-miterlimit: 4; stroke-dasharray: none; stroke-opacity: 1; font-family: DejaVu Sans;" />
      <g
         style="font-style: normal; font-variant: normal; font-weight: normal; font-stretch: normal; font-family: DejaVu Sans;"
         transform="translate(36.181, 3.15885e-05)"
         id="g21845">
        <rect
           rx="9.130435"
           ry="0"
           y="95.669266"
           x="191.33862"
           height="106.29922"
           width="10.629881"
           id="rect8168"
           style="font-style: normal; font-variant: normal; font-weight: normal; font-stretch: normal; fill: rgb(0, 0, 128); fill-opacity: 1; font-family: DejaVu Sans;" />
        <rect
           style="font-style: normal; font-variant: normal; font-weight: normal; font-stretch: normal; fill: rgb(0, 0, 128); fill-opacity: 1; font-family: DejaVu Sans;"
           id="rect8180"
           width="10.629925"
           height="106.29922"
           x="209.05511"
           y="95.669266"
           ry="0"
           rx="9.130435" />
        <rect
           rx="9.130435"
           ry="0"
           y="95.669266"
           x="226.77165"
           height="106.29922"
           width="10.629923"
           id="rect8182"
           style="font-style: normal; font-variant: normal; font-weight: normal; font-stretch: normal; fill: rgb(0, 0, 128); fill-opacity: 1; font-family: DejaVu Sans;" />
        <rect
           style="font-style: normal; font-variant: normal; font-weight: normal; font-stretch: normal; fill: rgb(0, 0, 128); fill-opacity: 1; font-family: DejaVu Sans;"
           id="rect8184"
           width="10.629921"
           height="106.29922"
           x="244.48819"
           y="95.669266"
           ry="0"
           rx="9.130435" />
      </g>
      <rect
         rx="5.5231323"
         ry="0"
         y="109.94905"
         x="-57.031544"
         height="85.736"
         width="10.717"
         id="rect10000"
         style="font-style:normal;font-variant:normal;font-weight:normal;font-stretch:normal;fill:#000080;fill-opacity:1;font-family:DejaVu Sans" />
      <g
         style="font-style: normal; font-variant: normal; font-weight: normal; font-stretch: normal; font-family: DejaVu Sans;"
         transform="matrix(2.14131, 0, 0, 1.65, -85.6016, 68.0315)"
         id="g10909">
        <path
           transform="matrix(0.671581, 0, 0, 0.606061, 21.8888, -41.2312)"
           id="path10947"
           d="M 106.29921,184.25195 L 106.29921,255.11809"
           style="font-style: normal; font-variant: normal; font-weight: normal; font-stretch: normal; fill: none; fill-opacity: 0.75; fill-rule: evenodd; stroke: rgb(0, 0, 0); stroke-width: 5; stroke-linecap: butt; stroke-linejoin: miter; stroke-miterlimit: 4; stroke-dasharray: none; stroke-opacity: 1; font-family: DejaVu Sans;" />
      </g>
      <g
         style="font-style: normal; font-variant: normal; font-weight: normal; font-stretch: normal; font-family: DejaVu Sans;"
         transform="translate(-98.4646, -28.3464)"
         id="g11958">
        <rect
           ry="9.130435"
           y="485.43304"
           x="124.01575"
           height="53.149612"
           width="70.866142"
           id="rect11928"
           style="font-style: normal; font-variant: normal; font-weight: normal; font-stretch: normal; fill: rgb(80, 80, 80); fill-opacity: 1; font-family: DejaVu Sans;"
           rx="12.173912" />
        <text
           id="text2676"
           y="507.616"
           x="159.41701"
           style="font-style:normal;font-variant:normal;font-weight:normal;font-stretch:normal;line-height:0%;font-family:'DejaVu Sans';text-align:center;text-anchor:middle;fill:#ffffff;fill-opacity:1"
           xml:space="preserve"><tspan
             y="507.616"
             x="159.41701"
             style="font-style:normal;font-variant:normal;font-weight:normal;font-stretch:normal;font-size:12px;line-height:1.25;font-family:'DejaVu Sans'"
             id="tspan2678"
             sodipodi:role="line">ППЗУ</tspan><tspan
             id="tspan2680"
             y="522.61597"
             x="159.41701"
             style="font-style:normal;font-variant:normal;font-weight:normal;font-stretch:normal;font-size:12px;line-height:1.25;font-family:'DejaVu Sans'"
             sodipodi:role="line">(BIOS)</tspan></text>
      </g>
      <path
         id="path12853"
         d="M 132.41737,464.17323 L 114.70083,464.17323"
         style="font-style: normal; font-variant: normal; font-weight: normal; font-stretch: normal; fill: none; fill-opacity: 0.75; fill-rule: evenodd; stroke: rgb(0, 0, 0); stroke-width: 6.49489; stroke-linecap: butt; stroke-linejoin: miter; stroke-miterlimit: 4; stroke-dasharray: none; stroke-opacity: 1; font-family: DejaVu Sans;" />
      <g
         style="font-style: normal; font-variant: normal; font-weight: normal; font-stretch: normal; font-family: DejaVu Sans;"
         transform="translate(14.9213, 7.08661)"
         id="g7592">
        <g
           style="font-style: normal; font-variant: normal; font-weight: normal; font-stretch: normal; font-family: DejaVu Sans;"
           id="g7552"
           transform="matrix(0, -1, 1, 0, -99.2126, 588.189)">
          <rect
             ry="0.88582581"
             y="325.98425"
             x="155.90547"
             height="3.5433049"
             width="63.779522"
             id="rect7554"
             style="font-style: normal; font-variant: normal; font-weight: normal; font-stretch: normal; fill: url(#linearGradient4122) rgb(0, 0, 0); fill-opacity: 1; stroke: rgb(0, 0, 0); stroke-width: 0pt; stroke-linejoin: round; stroke-miterlimit: 4; stroke-dasharray: none; stroke-dashoffset: 0pt; stroke-opacity: 1; font-family: DejaVu Sans;"
             rx="0.88582581" />
          <rect
             ry="0.88582581"
             y="336.61417"
             x="155.90547"
             height="3.5433049"
             width="63.779522"
             id="rect7556"
             style="font-style: normal; font-variant: normal; font-weight: normal; font-stretch: normal; fill: url(#linearGradient4130) rgb(0, 0, 0); fill-opacity: 1; stroke: rgb(0, 0, 0); stroke-width: 0pt; stroke-linejoin: round; stroke-miterlimit: 4; stroke-dasharray: none; stroke-dashoffset: 0pt; stroke-opacity: 1; font-family: DejaVu Sans;"
             rx="0.88582581" />
          <rect
             ry="0.88582581"
             y="357.87402"
             x="155.90547"
             height="3.5433049"
             width="63.779522"
             id="rect7558"
             style="font-style: normal; font-variant: normal; font-weight: normal; font-stretch: normal; fill: url(#linearGradient4146) rgb(0, 0, 0); fill-opacity: 1; stroke: rgb(0, 0, 0); stroke-width: 0pt; stroke-linejoin: round; stroke-miterlimit: 4; stroke-dasharray: none; stroke-dashoffset: 0pt; stroke-opacity: 1; font-family: DejaVu Sans;"
             rx="0.88582581" />
          <rect
             ry="0.88582581"
             y="347.24411"
             x="155.90547"
             height="3.5433049"
             width="63.779522"
             id="rect7560"
             style="font-style: normal; font-variant: normal; font-weight: normal; font-stretch: normal; fill: url(#linearGradient4138) rgb(0, 0, 0); fill-opacity: 1; stroke: rgb(0, 0, 0); stroke-width: 0pt; stroke-linejoin: round; stroke-miterlimit: 4; stroke-dasharray: none; stroke-dashoffset: 0pt; stroke-opacity: 1; font-family: DejaVu Sans;"
             rx="0.88582581" />
        </g>
        <rect
           style="font-style: normal; font-variant: normal; font-weight: normal; font-stretch: normal; fill: rgb(0, 0, 0); fill-opacity: 1; stroke: rgb(0, 0, 0); stroke-width: 0pt; stroke-linejoin: round; stroke-miterlimit: 4; stroke-dasharray: none; stroke-dashoffset: 0pt; stroke-opacity: 1; font-family: DejaVu Sans;"
           id="rect7576"
           width="3.5433071"
           height="21.259842"
           x="297.63779"
           y="474.80313"
           transform="translate(-70.8662, -46.063)"
           ry="0.88582581"
           rx="0.88582581" />
        <rect
           style="font-style: normal; font-variant: normal; font-weight: normal; font-stretch: normal; fill: rgb(0, 0, 0); fill-opacity: 1; stroke: rgb(0, 0, 0); stroke-width: 0pt; stroke-linejoin: round; stroke-miterlimit: 4; stroke-dasharray: none; stroke-dashoffset: 0pt; stroke-opacity: 1; font-family: DejaVu Sans;"
           id="rect7578"
           width="3.5433071"
           height="31.889753"
           x="237.40154"
           y="428.74017"
           ry="1.3287383"
           rx="1.3287383" />
        <rect
           style="font-style: normal; font-variant: normal; font-weight: normal; font-stretch: normal; fill: rgb(0, 0, 0); fill-opacity: 1; stroke: rgb(0, 0, 0); stroke-width: 0pt; stroke-linejoin: round; stroke-miterlimit: 4; stroke-dasharray: none; stroke-dashoffset: 0pt; stroke-opacity: 1; font-family: DejaVu Sans;"
           id="rect7580"
           width="3.5433071"
           height="42.519676"
           x="248.03145"
           y="428.74017"
           ry="1.7716513"
           rx="1.7716513" />
        <rect
           style="font-style: normal; font-variant: normal; font-weight: normal; font-stretch: normal; fill: rgb(0, 0, 0); fill-opacity: 1; stroke: rgb(0, 0, 0); stroke-width: 0pt; stroke-linejoin: round; stroke-miterlimit: 4; stroke-dasharray: none; stroke-dashoffset: 0pt; stroke-opacity: 1; font-family: DejaVu Sans;"
           id="rect7582"
           width="3.5433071"
           height="53.149597"
           x="258.66138"
           y="428.74017"
           ry="2.2145641"
           rx="2.2145641" />
        <rect
           style="font-style: normal; font-variant: normal; font-weight: normal; font-stretch: normal; fill: rgb(0, 0, 0); fill-opacity: 1; stroke: rgb(0, 0, 0); stroke-width: 0pt; stroke-linejoin: round; stroke-miterlimit: 4; stroke-dasharray: none; stroke-dashoffset: 0pt; stroke-opacity: 1; font-family: DejaVu Sans;"
           id="rect7584"
           width="28.346455"
           height="3.5433071"
           x="201.96846"
           y="446.4567"
           ry="1.7716535"
           rx="1.7716535" />
        <rect
           style="font-style: normal; font-variant: normal; font-weight: normal; font-stretch: normal; fill: rgb(0, 0, 0); fill-opacity: 1; stroke: rgb(0, 0, 0); stroke-width: 0pt; stroke-linejoin: round; stroke-miterlimit: 4; stroke-dasharray: none; stroke-dashoffset: 0pt; stroke-opacity: 1; font-family: DejaVu Sans;"
           id="rect7586"
           width="38.976383"
           height="3.5433071"
           x="201.96846"
           y="457.08661"
           ry="1.7716535"
           rx="1.7716535" />
        <rect
           style="font-style: normal; font-variant: normal; font-weight: normal; font-stretch: normal; fill: rgb(0, 0, 0); fill-opacity: 1; stroke: rgb(0, 0, 0); stroke-width: 0pt; stroke-linejoin: round; stroke-miterlimit: 4; stroke-dasharray: none; stroke-dashoffset: 0pt; stroke-opacity: 1; font-family: DejaVu Sans;"
           id="rect7588"
           width="49.606304"
           height="3.5433071"
           x="201.96846"
           y="467.71655"
           ry="1.7716535"
           rx="1.7716535" />
        <rect
           style="font-style: normal; font-variant: normal; font-weight: normal; font-stretch: normal; fill: rgb(0, 0, 0); fill-opacity: 1; stroke: rgb(0, 0, 0); stroke-width: 0pt; stroke-linejoin: round; stroke-miterlimit: 4; stroke-dasharray: none; stroke-dashoffset: 0pt; stroke-opacity: 1; font-family: DejaVu Sans;"
           id="rect7590"
           width="60.236217"
           height="3.5433071"
           x="201.96846"
           y="478.34644"
           ry="1.7716535"
           rx="1.7716535" />
      </g>
      <g
         style="font-style: normal; font-variant: normal; font-weight: normal; font-stretch: normal; font-family: DejaVu Sans;"
         transform="translate(7.83465, 17.7165)"
         id="g2442">
        <rect
           rx="11.413036"
           style="font-style: normal; font-variant: normal; font-weight: normal; font-stretch: normal; fill: rgb(80, 80, 80); fill-opacity: 1; font-family: DejaVu Sans;"
           id="rect10931"
           width="88.582626"
           height="88.58271"
           x="124.01575"
           y="396.85037"
           ry="11.413048" />
        <text
           id="text2744"
           y="419.26001"
           x="168.30299"
           style="font-style:normal;font-variant:normal;font-weight:normal;font-stretch:normal;line-height:0%;font-family:'DejaVu Sans';text-align:center;text-anchor:middle;fill:#ffffff;fill-opacity:1"
           xml:space="preserve"><tspan
             y="419.26001"
             x="168.30299"
             id="tspan2746"
             sodipodi:role="line"
             style="font-style:normal;font-variant:normal;font-weight:normal;font-stretch:normal;font-size:7.74999952px;line-height:125%;font-family:'DejaVu Sans';-inkscape-font-specification:'DejaVu Sans, Normal';text-align:center;writing-mode:lr-tb;text-anchor:middle">Super I/O контроллер</tspan></text>
        <text
           id="text2748"
           y="438.51999"
           x="208.01601"
           style="font-style:oblique;font-variant:normal;font-weight:normal;font-stretch:normal;line-height:0%;font-family:'DejaVu Sans';text-align:end;text-anchor:end;fill:#ffffff;fill-opacity:1"
           xml:space="preserve"><tspan
             y="438.51999"
             x="208.01601"
             id="tspan2750"
             sodipodi:role="line"
             style="font-size:10px;line-height:1.04999995">Послед. порт</tspan><tspan
             id="tspan2758"
             y="449.01999"
             x="208.01601"
             sodipodi:role="line"
             style="font-size:10px;line-height:1.04999995">Парал. порт</tspan><tspan
             id="tspan2756"
             y="459.51999"
             x="208.01601"
             sodipodi:role="line"
             style="font-size:10px;line-height:1.04999995">НГМД</tspan><tspan
             id="tspan2754"
             y="470.01999"
             x="208.01601"
             sodipodi:role="line"
             style="font-size:10px;line-height:1.04999995">Клавиатура</tspan><tspan
             id="tspan2752"
             y="480.51999"
             x="208.01601"
             sodipodi:role="line"
             style="font-size:10px;line-height:1.04999995">Мышь</tspan></text>
      </g>
      <g
         transform="translate(7.83465)"
         style="font-style: normal; font-variant: normal; font-weight: normal; font-stretch: normal; font-family: DejaVu Sans;"
         id="g2425">
        <a
           style="font-style: normal; font-variant: normal; font-weight: normal; font-stretch: normal; font-family: DejaVu Sans;"
           id="a2419">
          <rect
             rx="13.695642"
             style="font-style: normal; font-variant: normal; font-weight: normal; font-stretch: normal; fill: rgb(80, 80, 80); fill-opacity: 1; font-family: DejaVu Sans;"
             id="rect7240"
             width="106.29913"
             height="106.29921"
             x="53.149635"
             y="95.669304"
             ry="13.695652" />
        </a>
        <text
           id="text2702"
           y="124.125"
           x="105.514"
           style="font-style:normal;font-variant:normal;font-weight:normal;font-stretch:normal;line-height:0%;font-family:'DejaVu Sans';text-align:center;text-anchor:middle;fill:#ffffff;fill-opacity:1"
           xml:space="preserve"><tspan
             y="124.125"
             x="105.514"
             style="font-style:normal;font-variant:normal;font-weight:normal;font-stretch:normal;font-size:16px;line-height:1.25;font-family:'DejaVu Sans'"
             id="tspan2704"
             sodipodi:role="line">Северный</tspan><tspan
             y="144.125"
             x="108.06087"
             style="font-style:normal;font-variant:normal;font-weight:normal;font-stretch:normal;font-size:16px;line-height:1.25;font-family:'DejaVu Sans'"
             sodipodi:role="line"
             id="tspan2995">мост </tspan></text>
        <text
           id="text2710"
           y="160.69501"
           x="105.874"
           style="font-style:normal;font-variant:normal;font-weight:normal;font-stretch:normal;line-height:0%;font-family:'DejaVu Sans';text-align:center;text-anchor:middle;fill:#ffffff"
           xml:space="preserve"><tspan
             y="160.69501"
             x="105.874"
             sodipodi:role="line"
             id="tspan2999"
             style="font-size:10px;line-height:1.25">(контроллер-</tspan><tspan
             y="173.19501"
             x="107.4658"
             sodipodi:role="line"
             id="tspan3003"
             style="font-size:10px;line-height:1.25">концентратор </tspan><tspan
             y="185.69501"
             x="105.874"
             sodipodi:role="line"
             id="tspan3005"
             style="font-size:10px;line-height:1.25">памяти)</tspan></text>
      </g>
      <g
         style="font-style: normal; font-variant: normal; font-weight: normal; font-stretch: normal; font-family: DejaVu Sans;"
         transform="matrix(0.909383, 0, 0, 1, 21.9624, 10.6299)"
         id="g7538">
        <rect
           rx="0.9740957"
           style="font-style: normal; font-variant: normal; font-weight: normal; font-stretch: normal; fill: url(#linearGradient4162) rgb(0, 0, 0); fill-opacity: 1; stroke: rgb(0, 0, 0); stroke-width: 0pt; stroke-linejoin: round; stroke-miterlimit: 4; stroke-dasharray: none; stroke-dashoffset: 0pt; stroke-opacity: 1; font-family: DejaVu Sans;"
           id="rect7514"
           width="63.779522"
           height="3.5433049"
           x="155.90547"
           y="325.98425"
           ry="0.88582581" />
        <rect
           rx="0.9740957"
           style="font-style: normal; font-variant: normal; font-weight: normal; font-stretch: normal; fill: url(#linearGradient4170) rgb(0, 0, 0); fill-opacity: 1; stroke: rgb(0, 0, 0); stroke-width: 0pt; stroke-linejoin: round; stroke-miterlimit: 4; stroke-dasharray: none; stroke-dashoffset: 0pt; stroke-opacity: 1; font-family: DejaVu Sans;"
           id="rect7526"
           width="63.779522"
           height="3.5433049"
           x="155.90547"
           y="336.61417"
           ry="0.88582581" />
        <rect
           rx="0.9740957"
           style="font-style: normal; font-variant: normal; font-weight: normal; font-stretch: normal; fill: url(#linearGradient4186) rgb(0, 0, 0); fill-opacity: 1; stroke: rgb(0, 0, 0); stroke-width: 0pt; stroke-linejoin: round; stroke-miterlimit: 4; stroke-dasharray: none; stroke-dashoffset: 0pt; stroke-opacity: 1; font-family: DejaVu Sans;"
           id="rect7530"
           width="63.779522"
           height="3.5433049"
           x="155.90547"
           y="357.87402"
           ry="0.88582581" />
        <rect
           rx="0.9740957"
           style="font-style: normal; font-variant: normal; font-weight: normal; font-stretch: normal; fill: url(#linearGradient4178) rgb(0, 0, 0); fill-opacity: 1; stroke: rgb(0, 0, 0); stroke-width: 0pt; stroke-linejoin: round; stroke-miterlimit: 4; stroke-dasharray: none; stroke-dashoffset: 0pt; stroke-opacity: 1; font-family: DejaVu Sans;"
           id="rect7532"
           width="63.779522"
           height="3.5433049"
           x="155.90547"
           y="347.24411"
           ry="0.88582581" />
      </g>
      <g
         transform="translate(7.83465)"
         style="font-style: normal; font-variant: normal; font-weight: normal; font-stretch: normal; font-family: DejaVu Sans;"
         id="g5398">
        <rect
           ry="9.6837988"
           y="255.1181"
           x="53.149559"
           height="124.01578"
           width="106.29926"
           id="rect10911"
           style="font-style:normal;font-variant:normal;font-weight:normal;font-stretch:normal;fill:#505050;fill-opacity:1;font-family:DejaVu Sans"
           rx="9.1977406" />
        <text
           id="text2716"
           y="276"
           x="106.276"
           style="font-style:normal;font-variant:normal;font-weight:normal;font-stretch:normal;line-height:0%;font-family:'DejaVu Sans';text-align:center;text-anchor:middle;fill:#ffffff;fill-opacity:1"
           xml:space="preserve"><tspan
             y="276"
             x="106.276"
             style="font-style:normal;font-variant:normal;font-weight:normal;font-stretch:normal;font-size:16px;line-height:1.25;font-family:'DejaVu Sans'"
             id="tspan2718"
             sodipodi:role="line">Южный</tspan><tspan
             y="296"
             x="106.276"
             style="font-style:normal;font-variant:normal;font-weight:normal;font-stretch:normal;font-size:16px;line-height:1.25;font-family:'DejaVu Sans'"
             sodipodi:role="line"
             id="tspan3011">мост</tspan></text>
        <text
           id="text2720"
           y="313.28226"
           x="91.201019"
           style="font-style:normal;font-variant:normal;font-weight:normal;font-stretch:normal;line-height:0%;font-family:'DejaVu Sans';text-align:center;text-anchor:middle;fill:#ffffff"
           xml:space="preserve"><tspan
             id="tspan2724"
             y="313.28226"
             x="91.201019"
             sodipodi:role="line"
             style="font-size:9px;line-height:1.25">(контроллер-</tspan><tspan
             y="324.53226"
             x="92.633636"
             sodipodi:role="line"
             id="tspan3015"
             style="font-size:9px;line-height:1.25">концентратор </tspan><tspan
             y="335.78226"
             x="91.201019"
             sodipodi:role="line"
             id="tspan3017"
             style="font-size:9px;line-height:1.25">ввода-вывода)</tspan></text>
        <text
           id="text2730"
           y="323.26999"
           x="155.08501"
           style="font-style:oblique;font-variant:normal;font-weight:normal;font-stretch:normal;line-height:0%;font-family:'DejaVu Sans';text-align:end;text-anchor:end;fill:#ffffff;fill-opacity:1"
           xml:space="preserve"><tspan
             y="323.26999"
             x="155.08501"
             style="font-style:oblique;font-variant:normal;font-weight:normal;font-stretch:normal;font-size:10px;line-height:100%;font-family:'DejaVu Sans';text-align:end;text-anchor:end"
             id="tspan2732"
             sodipodi:role="line">IDE</tspan><tspan
             id="tspan2742"
             y="333.26999"
             x="155.08501"
             style="font-style:oblique;font-variant:normal;font-weight:normal;font-stretch:normal;font-size:10px;line-height:100%;font-family:'DejaVu Sans';text-align:end;text-anchor:end"
             sodipodi:role="line">SATA</tspan><tspan
             id="tspan2740"
             y="343.26999"
             x="155.08501"
             style="font-style:oblique;font-variant:normal;font-weight:normal;font-stretch:normal;font-size:10px;line-height:100%;font-family:'DejaVu Sans';text-align:end;text-anchor:end"
             sodipodi:role="line">USB</tspan><tspan
             id="tspan2738"
             y="353.26999"
             x="155.08501"
             style="font-style:oblique;font-variant:normal;font-weight:normal;font-stretch:normal;font-size:10px;line-height:100%;font-family:'DejaVu Sans';text-align:end;text-anchor:end"
             sodipodi:role="line">Ethernet</tspan><tspan
             id="tspan2736"
             y="363.26999"
             x="155.08501"
             style="font-style:oblique;font-variant:normal;font-weight:normal;font-stretch:normal;font-size:10px;line-height:100%;font-family:'DejaVu Sans';text-align:end;text-anchor:end"
             sodipodi:role="line">Аудио</tspan><tspan
             id="tspan2734"
             y="373.26999"
             x="155.08501"
             style="font-style:oblique;font-variant:normal;font-weight:normal;font-stretch:normal;font-size:10px;line-height:100%;font-family:'DejaVu Sans';text-align:end;text-anchor:end"
             sodipodi:role="line">ППЗУ</tspan></text>
      </g>
      <rect
         rx="0"
         y="77.966789"
         x="43.281685"
         height="318.3696"
         width="141.70425"
         id="rect2457"
         style="font-style: normal; font-variant: normal; font-weight: normal; font-stretch: normal; fill: rgb(0, 0, 0); fill-opacity: 0; stroke: rgb(100, 150, 100); stroke-width: 1.02804; stroke-linejoin: round; stroke-miterlimit: 4; stroke-dasharray: 3.08411, 1.02804; stroke-dashoffset: 0pt; stroke-opacity: 1; font-family: DejaVu Sans;" />
      <g
         style="font-style: normal; font-variant: normal; font-weight: normal; font-stretch: normal; font-family: DejaVu Sans;"
         transform="matrix(0.55, 0, 0, 0.733333, -63.9173, -338.267)"
         id="g11615">
        <rect
           ry="9.130435"
           y="485.43304"
           x="124.01575"
           height="53.149612"
           width="70.866142"
           id="rect11617"
           style="font-style: normal; font-variant: normal; font-weight: normal; font-stretch: normal; fill: rgb(80, 80, 80); fill-opacity: 1; font-family: DejaVu Sans;"
           rx="12.173912" />
        <text
           id="text2610"
           y="502.34747"
           x="158.92999"
           style="font-style:normal;font-variant:normal;font-weight:normal;font-stretch:normal;line-height:0%;font-family:'DejaVu Sans';text-align:center;text-anchor:middle;fill:#ffffff;fill-opacity:1"
           xml:space="preserve"><tspan
             id="tspan2614"
             y="502.34747"
             x="158.92999"
             sodipodi:role="line"
             style="font-size:11.02214432px;line-height:1.25">Генератор</tspan><tspan
             y="516.12518"
             x="158.92999"
             sodipodi:role="line"
             id="tspan3130"
             style="font-size:11.02214432px;line-height:1.25">тактовых</tspan><tspan
             y="529.90283"
             x="158.92999"
             sodipodi:role="line"
             id="tspan3132"
             style="font-size:11.02214432px;line-height:1.25">импульсов</tspan></text>
      </g>
      <text
         id="text2586"
         y="79.360237"
         x="-35.524883"
         style="font-style:normal;font-variant:normal;font-weight:normal;font-stretch:normal;line-height:0%;font-family:'DejaVu Sans';text-align:start;text-anchor:start"
         xml:space="preserve"><tspan
           id="tspan2590"
           y="79.360237"
           x="-34.092266"
           sodipodi:role="line"
           style="font-size:9px;line-height:1.25;text-align:center;text-anchor:middle">Слот </tspan><tspan
           y="90.610237"
           x="-34.092266"
           sodipodi:role="line"
           id="tspan3095"
           style="font-size:9px;line-height:1.25;text-align:center;text-anchor:middle">графического </tspan><tspan
           y="101.86024"
           x="-35.524883"
           sodipodi:role="line"
           id="tspan3097"
           style="font-size:9px;line-height:1.25;text-align:center;text-anchor:middle">адаптера</tspan></text>
      <text
         id="text2592"
         y="119.27899"
         x="8.3935757"
         style="font-style:oblique;font-variant:normal;font-weight:normal;font-stretch:normal;line-height:0%;font-family:'DejaVu Sans';text-align:center;text-anchor:middle"
         xml:space="preserve"><tspan
           y="119.27899"
           x="8.3935757"
           sodipodi:role="line"
           style="font-style:oblique;font-variant:normal;font-weight:normal;font-stretch:normal;font-size:9px;line-height:125%;font-family:'DejaVu Sans';text-align:center;text-anchor:middle"
           id="tspan3093">Высокоскоростная</tspan><tspan
           y="130.52899"
           x="9.8261929"
           sodipodi:role="line"
           style="font-style:oblique;font-variant:normal;font-weight:normal;font-stretch:normal;font-size:9px;line-height:125%;font-family:'DejaVu Sans';text-align:center;text-anchor:middle"
           id="tspan3525">шина </tspan><tspan
           y="141.77899"
           x="8.3935757"
           sodipodi:role="line"
           style="font-style:oblique;font-variant:normal;font-weight:normal;font-stretch:normal;font-size:9px;line-height:125%;font-family:'DejaVu Sans';text-align:center;text-anchor:middle"
           id="tspan3531">PCI-Express или AGP</tspan></text>
      <text
         id="text2620"
         y="71.750999"
         x="63.339401"
         style="font-style:normal;font-variant:normal;font-weight:normal;font-stretch:normal;line-height:0%;font-family:'DejaVu Sans';text-align:center;text-anchor:middle"
         xml:space="preserve"><tspan
           y="71.750999"
           x="63.339401"
           id="tspan2622"
           sodipodi:role="line"
           style="font-size:10px;line-height:1.25">Чипсет</tspan></text>
      <text
         id="text2624"
         y="37.952801"
         x="121.423"
         style="font-style:oblique;font-variant:normal;font-weight:normal;font-stretch:normal;line-height:0%;font-family:'DejaVu Sans';text-align:start;text-anchor:start"
         xml:space="preserve"><tspan
           y="37.952801"
           x="121.423"
           sodipodi:role="line"
           style="font-size:9px;line-height:1.25"
           id="tspan3146">Front Side</tspan><tspan
           y="49.202801"
           x="121.423"
           sodipodi:role="line"
           style="font-size:9px;line-height:1.25"
           id="tspan3529">шина</tspan></text>
      <text
         id="text2630"
         y="116.07899"
         x="206.13"
         style="font-style:normal;font-variant:normal;font-weight:normal;font-stretch:normal;line-height:0%;font-family:'DejaVu Sans';text-align:center;text-anchor:middle"
         xml:space="preserve"><tspan
           y="116.07899"
           x="207.56262"
           sodipodi:role="line"
           style="font-style:oblique;font-variant:normal;font-weight:normal;font-stretch:normal;font-size:9px;line-height:100%;font-family:'DejaVu Sans';text-align:center;text-anchor:middle"
           id="tspan3164"> </tspan><tspan
           y="125.07899"
           x="207.56262"
           sodipodi:role="line"
           style="font-style:oblique;font-variant:normal;font-weight:normal;font-stretch:normal;font-size:9px;line-height:100%;font-family:'DejaVu Sans';text-align:center;text-anchor:middle"
           id="tspan3168"> </tspan><tspan
           y="134.07898"
           x="206.13"
           sodipodi:role="line"
           style="font-style:oblique;font-variant:normal;font-weight:normal;font-stretch:normal;font-size:9px;line-height:100%;font-family:'DejaVu Sans';text-align:center;text-anchor:middle"
           id="tspan3197">Шина</tspan><tspan
           y="143.07898"
           x="206.13"
           sodipodi:role="line"
           style="font-style:oblique;font-variant:normal;font-weight:normal;font-stretch:normal;font-size:9px;line-height:100%;font-family:'DejaVu Sans';text-align:center;text-anchor:middle"
           id="tspan3158">памяти</tspan></text>
      <text
         id="text2640"
         y="91.102402"
         x="224.843"
         style="font-style:normal;font-variant:normal;font-weight:normal;font-stretch:normal;line-height:0%;font-family:'DejaVu Sans';text-align:start;text-anchor:start"
         xml:space="preserve"><tspan
           y="91.102402"
           x="224.843"
           style="font-style:normal;font-variant:normal;font-weight:normal;font-stretch:normal;font-size:9px;line-height:1.25;font-family:'DejaVu Sans'"
           id="tspan2642"
           sodipodi:role="line">Слоты памяти</tspan></text>
      <text
         id="text2654"
         y="421.92401"
         x="108.695"
         style="font-style:oblique;font-variant:normal;font-weight:normal;font-stretch:normal;line-height:0%;font-family:'DejaVu Sans';text-align:end;text-anchor:end"
         xml:space="preserve"><tspan
           id="tspan2658"
           y="421.92401"
           x="108.695"
           sodipodi:role="line"
           style="font-size:9px;line-height:1.25">Шина</tspan><tspan
           y="433.17401"
           x="108.695"
           sodipodi:role="line"
           id="tspan3122"
           style="font-size:9px;line-height:1.25">LPC</tspan></text>
      <text
         id="text2660"
         y="214.187"
         x="119.761"
         style="font-style:oblique;font-variant:normal;font-weight:normal;font-stretch:normal;line-height:0%;font-family:'DejaVu Sans';text-align:start;text-anchor:start"
         xml:space="preserve"><tspan
           id="tspan2664"
           y="214.187"
           x="119.761"
           sodipodi:role="line"
           style="font-size:9px;line-height:1.25"> </tspan><tspan
           y="225.437"
           x="119.761"
           sodipodi:role="line"
           style="font-size:9px;line-height:1.25"
           id="tspan3140">Внутренняя</tspan><tspan
           y="236.687"
           x="119.761"
           sodipodi:role="line"
           style="font-size:9px;line-height:1.25"
           id="tspan3156">Шина </tspan></text>
      <text
         id="text2690"
         y="333.41199"
         x="258.24301"
         style="font-style:oblique;font-variant:normal;font-weight:normal;font-stretch:normal;line-height:0%;font-family:'DejaVu Sans';text-align:center;text-anchor:middle"
         xml:space="preserve"><tspan
           y="333.41199"
           x="259.83481"
           sodipodi:role="line"
           id="tspan3104"
           style="font-size:10px;line-height:1.25"> </tspan><tspan
           y="345.91199"
           x="258.24301"
           sodipodi:role="line"
           id="tspan3110"
           style="font-size:10px;line-height:1.25">Разъёмы на</tspan><tspan
           y="358.41199"
           x="258.24301"
           sodipodi:role="line"
           id="tspan3154"
           style="font-size:10px;line-height:1.25">материнской</tspan><tspan
           y="370.91199"
           x="258.24301"
           sodipodi:role="line"
           id="tspan3106"
           style="font-size:10px;line-height:1.25">плате</tspan></text>
      <rect
         style="font-style:normal;font-variant:normal;font-weight:normal;font-stretch:normal;font-family:'DejaVu Sans';fill:#000080;fill-opacity:1"
         id="rect13774-1"
         width="10.717"
         height="96.237045"
         x="-33.711475"
         y="266.59183"
         ry="0"
         rx="5.5231323" />
      <rect
         rx="5.5231323"
         ry="0"
         y="267.04846"
         x="-54.055275"
         height="96.237045"
         width="10.717"
         id="rect13776-7"
         style="font-style:normal;font-variant:normal;font-weight:normal;font-stretch:normal;font-family:'DejaVu Sans';fill:#000080;fill-opacity:1" />
      <text
         id="text2644-4"
         y="308.56131"
         x="16.710062"
         style="font-style:oblique;font-variant:normal;font-weight:normal;font-stretch:normal;line-height:0%;font-family:'DejaVu Sans';text-align:center;text-anchor:middle"
         xml:space="preserve"><tspan
           id="tspan2648-0"
           y="308.56131"
           x="16.710062"
           sodipodi:role="line"
           style="font-size:9px;line-height:1.25"> Шина PCI</tspan></text>
      <text
         id="text2650-9"
         y="257.41794"
         x="-36.295624"
         style="font-style:normal;font-variant:normal;font-weight:normal;font-stretch:normal;line-height:0%;font-family:'DejaVu Sans';text-align:center;text-anchor:middle"
         xml:space="preserve"><tspan
           y="257.41794"
           x="-36.295624"
           id="tspan2652-4"
           sodipodi:role="line"
           style="font-size:9px;line-height:1.25">Слоты PCI</tspan></text>
    </g>
  </g>
</svg>
