%!PS-Adobe-3.0 EPSF-3.0
%%Creator: cairo 1.15.10 (http://cairographics.org)
%%CreationDate: Tue Sep 11 12:59:46 2018
%%Pages: 1
%%DocumentData: Clean7Bit
%%LanguageLevel: 2
%%BoundingBox: 0 0 734 429
%%EndComments
%%BeginProlog
50 dict begin
/q { gsave } bind def
/Q { grestore } bind def
/cm { 6 array astore concat } bind def
/w { setlinewidth } bind def
/J { setlinecap } bind def
/j { setlinejoin } bind def
/M { setmiterlimit } bind def
/d { setdash } bind def
/m { moveto } bind def
/l { lineto } bind def
/c { curveto } bind def
/h { closepath } bind def
/re { exch dup neg 3 1 roll 5 3 roll moveto 0 rlineto
      0 exch rlineto 0 rlineto closepath } bind def
/S { stroke } bind def
/f { fill } bind def
/f* { eofill } bind def
/n { newpath } bind def
/W { clip } bind def
/W* { eoclip } bind def
/BT { } bind def
/ET { } bind def
/BDC { mark 3 1 roll /BDC pdfmark } bind def
/EMC { mark /EMC pdfmark } bind def
/cairo_store_point { /cairo_point_y exch def /cairo_point_x exch def } def
/Tj { show currentpoint cairo_store_point } bind def
/TJ {
  {
    dup
    type /stringtype eq
    { show } { -0.001 mul 0 cairo_font_matrix dtransform rmoveto } ifelse
  } forall
  currentpoint cairo_store_point
} bind def
/cairo_selectfont { cairo_font_matrix aload pop pop pop 0 0 6 array astore
    cairo_font exch selectfont cairo_point_x cairo_point_y moveto } bind def
/Tf { pop /cairo_font exch def /cairo_font_matrix where
      { pop cairo_selectfont } if } bind def
/Td { matrix translate cairo_font_matrix matrix concatmatrix dup
      /cairo_font_matrix exch def dup 4 get exch 5 get cairo_store_point
      /cairo_font where { pop cairo_selectfont } if } bind def
/Tm { 2 copy 8 2 roll 6 array astore /cairo_font_matrix exch def
      cairo_store_point /cairo_font where { pop cairo_selectfont } if } bind def
/g { setgray } bind def
/rg { setrgbcolor } bind def
/d1 { setcachedevice } bind def
/cairo_data_source {
  CairoDataIndex CairoData length lt
    { CairoData CairoDataIndex get /CairoDataIndex CairoDataIndex 1 add def }
    { () } ifelse
} def
/cairo_flush_ascii85_file { cairo_ascii85_file status { cairo_ascii85_file flushfile } if } def
/cairo_image { image cairo_flush_ascii85_file } def
/cairo_imagemask { imagemask cairo_flush_ascii85_file } def
%%EndProlog
%%BeginSetup
%%EndSetup
%%Page: 1 1
%%BeginPageSetup
%%PageBoundingBox: 0 0 734 429
%%EndPageSetup
q 0 0 734 429 rectclip
1 0 0 -1 0 429 cm q
1 g
0 0 733.5 428.25 re f
0.596078 0.796078 0 rg
328.125 7.875 79.5 412.5 re f
0 g
9.75 104.25 m 9.75 138 l 7.5 138 l 10.125 143.25 l 12.75 138 l 10.5 138
 l 10.5 104.25 l h
21.562 119.25 m 21.293 119.25 21.07 119.344 20.883 119.531 c 20.695 119.719
 20.602 119.941 20.602 120.211 c 20.602 120.473 20.695 120.703 20.883 120.891
 c 21.07 121.078 21.301 121.172 21.562 121.172 c 21.824 121.172 22.055 121.078
 22.242 120.891 c 22.43 120.703 22.523 120.473 22.523 120.211 c 22.523 119.941
 22.43 119.719 22.242 119.531 c 22.055 119.344 21.832 119.25 21.562 119.25
 c h
21.68 123.07 m 18.375 123.609 l 18.375 123.984 l 18.816 123.914 19.102 
123.867 19.242 123.867 c 19.414 123.867 19.543 123.918 19.641 124.008 c 
19.738 124.098 19.805 124.219 19.805 124.359 c 19.805 124.539 19.707 124.965
 19.5 125.672 c 18.234 129.984 l 18.074 130.535 18 130.941 18 131.18 c 18
 131.418 18.09 131.609 18.258 131.766 c 18.426 131.922 18.629 132 18.891
 132 c 19.289 132 19.695 131.824 20.133 131.484 c 20.723 131.027 21.242 
130.465 21.68 129.797 c 21.352 129.586 l 20.98 130.117 20.617 130.539 20.25
 130.828 c 20.117 130.93 19.996 130.969 19.898 130.969 c 19.816 130.969 
19.75 130.938 19.688 130.875 c 19.625 130.812 19.594 130.719 19.594 130.617
 c 19.594 130.527 19.652 130.254 19.781 129.797 c h
22.641 162.68 m 22.062 163.621 21.539 164.289 21.07 164.672 c 20.602 165.055
 20.02 165.348 19.312 165.539 c 19.219 165.914 l 20.672 165.914 l 19.055
 171.469 l 18.848 172.18 18.75 172.715 18.75 173.062 c 18.75 173.34 18.828
 173.566 19.008 173.742 c 19.188 173.918 19.43 174 19.711 174 c 20.078 174
 20.43 173.867 20.789 173.625 c 21.316 173.273 21.887 172.68 22.477 171.82
 c 22.148 171.586 l 21.617 172.246 21.27 172.629 21.117 172.758 c 20.855
 172.98 20.645 173.086 20.484 173.086 c 20.414 173.086 20.348 173.074 20.297
 173.016 c 20.246 172.957 20.227 172.867 20.227 172.758 c 20.227 172.578
 20.328 172.195 20.508 171.586 c 22.148 165.914 l 23.648 165.914 l 23.812
 165.305 l 22.312 165.305 l 23.062 162.68 l h
43.5 179.25 m 43.5 181.5 l 9.75 181.5 l 9.75 182.25 l 43.5 182.25 l 43.5
 184.5 l 48.75 181.875 l h
43.5 179.25 m f
9.75 7.5 m 9.75 90.75 l 89.25 90.75 l 89.25 173.25 l 168.75 173.25 l 168.75
 255.75 l 248.25 255.75 l 248.25 338.25 l 327.75 338.25 l 327.75 420.75 
l 726 420.75 l 726 337.5 l 646.5 337.5 l 646.5 255 l 567 255 l 567 172.5
 l 487.5 172.5 l 487.5 90 l 408 90 l 408 7.5 l h
10.5 8.25 m 89.25 8.25 l 89.25 48.75 l 10.5 48.75 l h
90 8.25 m 168.75 8.25 l 168.75 48.75 l 90 48.75 l h
169.5 8.25 m 248.25 8.25 l 248.25 48.75 l 169.5 48.75 l h
249 8.25 m 327.75 8.25 l 327.75 48.75 l 249 48.75 l h
328.5 8.25 m 407.25 8.25 l 407.25 48.75 l 328.5 48.75 l h
10.5 49.5 m 89.25 49.5 l 89.25 90 l 10.5 90 l h
90 49.5 m 168.75 49.5 l 168.75 90 l 90 90 l h
169.5 49.5 m 248.25 49.5 l 248.25 90 l 169.5 90 l h
249 49.5 m 327.75 49.5 l 327.75 90 l 249 90 l h
328.5 49.5 m 407.25 49.5 l 407.25 90 l 328.5 90 l h
90 90.75 m 168.75 90.75 l 168.75 131.25 l 90 131.25 l h
169.5 90.75 m 248.25 90.75 l 248.25 131.25 l 169.5 131.25 l h
249 90.75 m 327.75 90.75 l 327.75 131.25 l 249 131.25 l h
328.5 90.75 m 407.25 90.75 l 407.25 131.25 l 328.5 131.25 l h
408 90.75 m 486.75 90.75 l 486.75 131.25 l 408 131.25 l h
90 132 m 168.75 132 l 168.75 172.5 l 90 172.5 l h
169.5 132 m 248.25 132 l 248.25 172.5 l 169.5 172.5 l h
249 132 m 327.75 132 l 327.75 172.5 l 249 172.5 l h
328.5 132 m 407.25 132 l 407.25 172.5 l 328.5 172.5 l h
408 132 m 486.75 132 l 486.75 172.5 l 408 172.5 l h
169.5 173.25 m 248.25 173.25 l 248.25 213.75 l 169.5 213.75 l h
249 173.25 m 327.75 173.25 l 327.75 213.75 l 249 213.75 l h
328.5 173.25 m 407.25 173.25 l 407.25 213.75 l 328.5 213.75 l h
408 173.25 m 486.75 173.25 l 486.75 213.75 l 408 213.75 l h
487.5 173.25 m 566.25 173.25 l 566.25 213.75 l 487.5 213.75 l h
169.5 214.5 m 248.25 214.5 l 248.25 255 l 169.5 255 l h
249 214.5 m 327.75 214.5 l 327.75 255 l 249 255 l h
328.5 214.5 m 407.25 214.5 l 407.25 255 l 328.5 255 l h
408 214.5 m 486.75 214.5 l 486.75 255 l 408 255 l h
487.5 214.5 m 566.25 214.5 l 566.25 255 l 487.5 255 l h
249 255.75 m 327.75 255.75 l 327.75 296.25 l 249 296.25 l h
328.5 255.75 m 407.25 255.75 l 407.25 296.25 l 328.5 296.25 l h
408 255.75 m 486.75 255.75 l 486.75 296.25 l 408 296.25 l h
487.5 255.75 m 566.25 255.75 l 566.25 296.25 l 487.5 296.25 l h
567 255.75 m 645.75 255.75 l 645.75 296.25 l 567 296.25 l h
249 297 m 327.75 297 l 327.75 337.5 l 249 337.5 l h
328.5 297 m 407.25 297 l 407.25 337.5 l 328.5 337.5 l h
408 297 m 486.75 297 l 486.75 337.5 l 408 337.5 l h
487.5 297 m 566.25 297 l 566.25 337.5 l 487.5 337.5 l h
567 297 m 645.75 297 l 645.75 337.5 l 567 337.5 l h
328.5 338.25 m 407.25 338.25 l 407.25 378.75 l 328.5 378.75 l h
408 338.25 m 486.75 338.25 l 486.75 378.75 l 408 378.75 l h
487.5 338.25 m 566.25 338.25 l 566.25 378.75 l 487.5 378.75 l h
567 338.25 m 645.75 338.25 l 645.75 378.75 l 567 378.75 l h
646.5 338.25 m 725.25 338.25 l 725.25 378.75 l 646.5 378.75 l h
328.5 379.5 m 407.25 379.5 l 407.25 420 l 328.5 420 l h
408 379.5 m 486.75 379.5 l 486.75 420 l 408 420 l h
487.5 379.5 m 566.25 379.5 l 566.25 420 l 487.5 420 l h
567 379.5 m 645.75 379.5 l 645.75 420 l 567 420 l h
646.5 379.5 m 725.25 379.5 l 725.25 420 l 646.5 420 l h
646.5 379.5 m f
39.281 38.625 m 39.281 18.375 l 41.961 18.375 l 41.961 38.625 l h
46.809 38.625 m 46.809 18.375 l 60.469 18.375 l 60.469 20.766 l 49.488 
20.766 l 49.488 27.035 l 58.992 27.035 l 58.992 29.426 l 49.488 29.426 l
 49.488 38.625 l h
46.809 38.625 m f
39.281 79.875 m 39.281 59.625 l 41.961 59.625 l 41.961 79.875 l h
46.809 79.875 m 46.809 59.625 l 60.469 59.625 l 60.469 62.016 l 49.488 
62.016 l 49.488 68.285 l 58.992 68.285 l 58.992 70.676 l 49.488 70.676 l
 49.488 79.875 l h
46.809 79.875 m f
117.309 38.625 m 117.309 18.375 l 119.988 18.375 l 119.988 38.625 l h
124.699 38.625 m 124.699 18.375 l 131.676 18.375 l 133.25 18.375 134.453
 18.473 135.281 18.664 c 136.441 18.934 137.43 19.414 138.25 20.117 c 139.32
 21.02 140.117 22.172 140.648 23.574 c 141.176 24.98 141.441 26.586 141.441
 28.391 c 141.441 29.926 141.262 31.289 140.902 32.477 c 140.543 33.668 
140.082 34.648 139.52 35.426 c 138.961 36.207 138.344 36.816 137.676 37.266
 c 137.008 37.711 136.203 38.051 135.258 38.281 c 134.316 38.512 133.23 
38.625 132.008 38.625 c h
127.379 36.234 m 131.703 36.234 l 133.039 36.234 134.086 36.109 134.844
 35.863 c 135.605 35.613 136.211 35.266 136.66 34.812 c 137.297 34.176 137.793
 33.324 138.145 32.25 c 138.5 31.176 138.68 29.875 138.68 28.348 c 138.68
 26.23 138.332 24.602 137.637 23.465 c 136.941 22.328 136.094 21.566 135.102
 21.18 c 134.383 20.902 133.227 20.766 131.633 20.766 c 127.379 20.766 l
 h
127.379 36.234 m f
117.309 79.875 m 117.309 59.625 l 119.988 59.625 l 119.988 79.875 l h
124.699 79.875 m 124.699 59.625 l 131.676 59.625 l 133.25 59.625 134.453
 59.723 135.281 59.914 c 136.441 60.184 137.43 60.664 138.25 61.367 c 139.32
 62.27 140.117 63.422 140.648 64.824 c 141.176 66.23 141.441 67.836 141.441
 69.641 c 141.441 71.176 141.262 72.539 140.902 73.727 c 140.543 74.918 
140.082 75.898 139.52 76.676 c 138.961 77.457 138.344 78.066 137.676 78.516
 c 137.008 78.961 136.203 79.301 135.258 79.531 c 134.316 79.762 133.23 
79.875 132.008 79.875 c h
127.379 77.484 m 131.703 77.484 l 133.039 77.484 134.086 77.359 134.844
 77.113 c 135.605 76.863 136.211 76.516 136.66 76.062 c 137.297 75.426 137.793
 74.574 138.145 73.5 c 138.5 72.426 138.68 71.125 138.68 69.598 c 138.68
 67.48 138.332 65.852 137.637 64.715 c 136.941 63.578 136.094 62.816 135.102
 62.43 c 134.383 62.152 133.227 62.016 131.633 62.016 c 127.379 62.016 l
 h
127.379 77.484 m f
191.203 38.625 m 191.203 18.375 l 205.844 18.375 l 205.844 20.766 l 193.883
 20.766 l 193.883 26.965 l 205.082 26.965 l 205.082 29.344 l 193.883 29.344
 l 193.883 36.234 l 206.312 36.234 l 206.312 38.625 l h
207.984 38.625 m 215.816 28.07 l 208.91 18.375 l 212.102 18.375 l 215.773
 23.57 l 216.539 24.645 217.082 25.477 217.406 26.055 c 217.855 25.32 218.391
 24.551 219.008 23.75 c 223.082 18.375 l 225.996 18.375 l 218.883 27.918
 l 226.547 38.625 l 223.234 38.625 l 218.137 31.402 l 217.852 30.988 217.559
 30.535 217.254 30.047 c 216.801 30.785 216.48 31.289 216.285 31.566 c 211.203
 38.625 l h
207.984 38.625 m f
191.203 79.875 m 191.203 59.625 l 205.844 59.625 l 205.844 62.016 l 193.883
 62.016 l 193.883 68.215 l 205.082 68.215 l 205.082 70.594 l 193.883 70.594
 l 193.883 77.484 l 206.312 77.484 l 206.312 79.875 l h
207.984 79.875 m 215.816 69.32 l 208.91 59.625 l 212.102 59.625 l 215.773
 64.82 l 216.539 65.895 217.082 66.727 217.406 67.305 c 217.855 66.57 218.391
 65.801 219.008 65 c 223.082 59.625 l 225.996 59.625 l 218.883 69.168 l 
226.547 79.875 l 223.234 79.875 l 218.137 72.652 l 217.852 72.238 217.559
 71.785 217.254 71.297 c 216.801 72.035 216.48 72.539 216.285 72.816 c 211.203
 79.875 l h
207.984 79.875 m f
257.469 38.625 m 257.469 18.375 l 261.5 18.375 l 266.297 32.715 l 266.738
 34.047 267.059 35.047 267.262 35.711 c 267.492 34.973 267.852 33.891 268.34
 32.465 c 273.188 18.375 l 276.793 18.375 l 276.793 38.625 l 274.211 38.625
 l 274.211 21.676 l 268.324 38.625 l 265.906 38.625 l 260.051 21.387 l 260.051
 38.625 l h
281.199 38.625 m 281.199 18.375 l 295.84 18.375 l 295.84 20.766 l 283.879
 20.766 l 283.879 26.965 l 295.082 26.965 l 295.082 29.344 l 283.879 29.344
 l 283.879 36.234 l 296.312 36.234 l 296.312 38.625 l h
299.957 38.625 m 299.957 18.375 l 303.992 18.375 l 308.785 32.715 l 309.227
 34.047 309.547 35.047 309.75 35.711 c 309.98 34.973 310.34 33.891 310.828
 32.465 c 315.676 18.375 l 319.281 18.375 l 319.281 38.625 l 316.699 38.625
 l 316.699 21.676 l 310.812 38.625 l 308.398 38.625 l 302.539 21.387 l 302.539
 38.625 l h
299.957 38.625 m f
257.469 79.875 m 257.469 59.625 l 261.5 59.625 l 266.297 73.965 l 266.738
 75.297 267.059 76.297 267.262 76.961 c 267.492 76.223 267.852 75.141 268.34
 73.715 c 273.188 59.625 l 276.793 59.625 l 276.793 79.875 l 274.211 79.875
 l 274.211 62.926 l 268.324 79.875 l 265.906 79.875 l 260.051 62.637 l 260.051
 79.875 l h
281.199 79.875 m 281.199 59.625 l 295.84 59.625 l 295.84 62.016 l 283.879
 62.016 l 283.879 68.215 l 295.082 68.215 l 295.082 70.594 l 283.879 70.594
 l 283.879 77.484 l 296.312 77.484 l 296.312 79.875 l h
299.957 79.875 m 299.957 59.625 l 303.992 59.625 l 308.785 73.965 l 309.227
 75.297 309.547 76.297 309.75 76.961 c 309.98 76.223 310.34 75.141 310.828
 73.715 c 315.676 59.625 l 319.281 59.625 l 319.281 79.875 l 316.699 79.875
 l 316.699 62.926 l 310.812 79.875 l 308.398 79.875 l 302.539 62.637 l 302.539
 79.875 l h
299.957 79.875 m f
351.395 38.625 m 346.023 18.375 l 348.773 18.375 l 351.852 31.648 l 352.184
 33.039 352.469 34.422 352.707 35.793 c 353.223 33.629 353.527 32.383 353.621
 32.051 c 357.473 18.375 l 360.707 18.375 l 363.605 28.625 l 364.336 31.164
 364.859 33.555 365.184 35.793 c 365.441 34.512 365.777 33.043 366.191 31.387
 c 369.367 18.375 l 372.062 18.375 l 366.508 38.625 l 363.926 38.625 l 359.656
 23.195 l 359.297 21.906 359.086 21.113 359.02 20.82 c 358.809 21.75 358.609
 22.543 358.426 23.195 c 354.133 38.625 l h
374.438 38.625 m 374.438 18.375 l 382.035 18.375 l 383.582 18.375 384.82
 18.578 385.758 18.988 c 386.691 19.398 387.422 20.031 387.953 20.883 c 
388.48 21.734 388.746 22.625 388.746 23.555 c 388.746 24.422 388.512 25.234
 388.043 26 c 387.57 26.766 386.863 27.383 385.914 27.852 c 387.141 28.211
 388.082 28.824 388.738 29.688 c 389.398 30.555 389.727 31.574 389.727 32.754
 c 389.727 33.703 389.527 34.586 389.125 35.398 c 388.727 36.215 388.23 
36.844 387.641 37.285 c 387.051 37.727 386.312 38.062 385.426 38.285 c 384.535
 38.512 383.445 38.625 382.156 38.625 c h
377.117 26.883 m 381.496 26.883 l 382.684 26.883 383.535 26.805 384.051
 26.648 c 384.73 26.445 385.246 26.109 385.59 25.641 c 385.938 25.172 386.109
 24.582 386.109 23.871 c 386.109 23.199 385.945 22.609 385.625 22.098 c 
385.305 21.586 384.844 21.238 384.242 21.047 c 383.645 20.859 382.617 20.766
 381.164 20.766 c 377.117 20.766 l h
377.117 36.234 m 382.156 36.234 l 383.023 36.234 383.633 36.203 383.98 
36.137 c 384.598 36.027 385.113 35.844 385.527 35.586 c 385.941 35.328 386.285
 34.953 386.551 34.461 c 386.816 33.969 386.953 33.398 386.953 32.754 c 
386.953 32 386.758 31.344 386.371 30.785 c 385.984 30.23 385.449 29.836 
384.762 29.613 c 384.074 29.387 383.09 29.273 381.797 29.273 c 377.117 29.273
 l h
377.117 36.234 m f
351.395 79.875 m 346.023 59.625 l 348.773 59.625 l 351.852 72.898 l 352.184
 74.289 352.469 75.672 352.707 77.043 c 353.223 74.879 353.527 73.633 353.621
 73.301 c 357.473 59.625 l 360.707 59.625 l 363.605 69.875 l 364.336 72.414
 364.859 74.805 365.184 77.043 c 365.441 75.762 365.777 74.293 366.191 72.637
 c 369.367 59.625 l 372.062 59.625 l 366.508 79.875 l 363.926 79.875 l 359.656
 64.445 l 359.297 63.156 359.086 62.363 359.02 62.07 c 358.809 63 358.609
 63.793 358.426 64.445 c 354.133 79.875 l h
374.438 79.875 m 374.438 59.625 l 382.035 59.625 l 383.582 59.625 384.82
 59.828 385.758 60.238 c 386.691 60.648 387.422 61.281 387.953 62.133 c 
388.48 62.984 388.746 63.875 388.746 64.805 c 388.746 65.672 388.512 66.484
 388.043 67.25 c 387.57 68.016 386.863 68.633 385.914 69.102 c 387.141 69.461
 388.082 70.074 388.738 70.938 c 389.398 71.805 389.727 72.824 389.727 74.004
 c 389.727 74.953 389.527 75.836 389.125 76.648 c 388.727 77.465 388.23 
78.094 387.641 78.535 c 387.051 78.977 386.312 79.312 385.426 79.535 c 384.535
 79.762 383.445 79.875 382.156 79.875 c h
377.117 68.133 m 381.496 68.133 l 382.684 68.133 383.535 68.055 384.051
 67.898 c 384.73 67.695 385.246 67.359 385.59 66.891 c 385.938 66.422 386.109
 65.832 386.109 65.121 c 386.109 64.449 385.945 63.859 385.625 63.348 c 
385.305 62.836 384.844 62.488 384.242 62.297 c 383.645 62.109 382.617 62.016
 381.164 62.016 c 377.117 62.016 l h
377.117 77.484 m 382.156 77.484 l 383.023 77.484 383.633 77.453 383.98 
77.387 c 384.598 77.277 385.113 77.094 385.527 76.836 c 385.941 76.578 386.285
 76.203 386.551 75.711 c 386.816 75.219 386.953 74.648 386.953 74.004 c 
386.953 73.25 386.758 72.594 386.371 72.035 c 385.984 71.48 385.449 71.086
 384.762 70.863 c 384.074 70.637 383.09 70.523 381.797 70.523 c 377.117 
70.523 l h
377.117 77.484 m f
0 0 1 rg
9 8.25 2.25 82.5 re f
0 g
118.781 121.125 m 118.781 100.875 l 121.461 100.875 l 121.461 121.125 l
 h
126.309 121.125 m 126.309 100.875 l 139.969 100.875 l 139.969 103.266 l
 128.988 103.266 l 128.988 109.535 l 138.492 109.535 l 138.492 111.926 l
 128.988 111.926 l 128.988 121.125 l h
126.309 121.125 m f
118.781 162.375 m 118.781 142.125 l 121.461 142.125 l 121.461 162.375 l
 h
126.309 162.375 m 126.309 142.125 l 139.969 142.125 l 139.969 144.516 l
 128.988 144.516 l 128.988 150.785 l 138.492 150.785 l 138.492 153.176 l
 128.988 153.176 l 128.988 162.375 l h
126.309 162.375 m f
196.809 121.125 m 196.809 100.875 l 199.488 100.875 l 199.488 121.125 l
 h
204.199 121.125 m 204.199 100.875 l 211.176 100.875 l 212.75 100.875 213.953
 100.973 214.781 101.164 c 215.941 101.434 216.93 101.914 217.75 102.617
 c 218.82 103.52 219.617 104.672 220.148 106.074 c 220.676 107.48 220.941
 109.086 220.941 110.891 c 220.941 112.426 220.762 113.789 220.402 114.977
 c 220.043 116.168 219.582 117.148 219.02 117.926 c 218.461 118.707 217.844
 119.316 217.176 119.766 c 216.508 120.211 215.703 120.551 214.758 120.781
 c 213.816 121.012 212.73 121.125 211.508 121.125 c h
206.879 118.734 m 211.203 118.734 l 212.539 118.734 213.586 118.609 214.344
 118.363 c 215.105 118.113 215.711 117.766 216.16 117.312 c 216.797 116.676
 217.293 115.824 217.645 114.75 c 218 113.676 218.18 112.375 218.18 110.848
 c 218.18 108.73 217.832 107.102 217.137 105.965 c 216.441 104.828 215.594
 104.066 214.602 103.68 c 213.883 103.402 212.727 103.266 211.133 103.266
 c 206.879 103.266 l h
206.879 118.734 m f
196.809 162.375 m 196.809 142.125 l 199.488 142.125 l 199.488 162.375 l
 h
204.199 162.375 m 204.199 142.125 l 211.176 142.125 l 212.75 142.125 213.953
 142.223 214.781 142.414 c 215.941 142.684 216.93 143.164 217.75 143.867
 c 218.82 144.77 219.617 145.922 220.148 147.324 c 220.676 148.73 220.941
 150.336 220.941 152.141 c 220.941 153.676 220.762 155.039 220.402 156.227
 c 220.043 157.418 219.582 158.398 219.02 159.176 c 218.461 159.957 217.844
 160.566 217.176 161.016 c 216.508 161.461 215.703 161.801 214.758 162.031
 c 213.816 162.262 212.73 162.375 211.508 162.375 c h
206.879 159.984 m 211.203 159.984 l 212.539 159.984 213.586 159.859 214.344
 159.613 c 215.105 159.363 215.711 159.016 216.16 158.562 c 216.797 157.926
 217.293 157.074 217.645 156 c 218 154.926 218.18 153.625 218.18 152.098
 c 218.18 149.98 217.832 148.352 217.137 147.215 c 216.441 146.078 215.594
 145.316 214.602 144.93 c 213.883 144.652 212.727 144.516 211.133 144.516
 c 206.879 144.516 l h
206.879 159.984 m f
270.703 121.125 m 270.703 100.875 l 285.344 100.875 l 285.344 103.266 l
 273.383 103.266 l 273.383 109.465 l 284.582 109.465 l 284.582 111.844 l
 273.383 111.844 l 273.383 118.734 l 285.812 118.734 l 285.812 121.125 l
 h
287.484 121.125 m 295.316 110.57 l 288.41 100.875 l 291.602 100.875 l 295.273
 106.07 l 296.039 107.145 296.582 107.977 296.906 108.555 c 297.355 107.82
 297.891 107.051 298.508 106.25 c 302.582 100.875 l 305.496 100.875 l 298.383
 110.418 l 306.047 121.125 l 302.734 121.125 l 297.637 113.902 l 297.352
 113.488 297.059 113.035 296.754 112.547 c 296.301 113.285 295.98 113.789
 295.785 114.066 c 290.703 121.125 l h
287.484 121.125 m f
270.703 162.375 m 270.703 142.125 l 285.344 142.125 l 285.344 144.516 l
 273.383 144.516 l 273.383 150.715 l 284.582 150.715 l 284.582 153.094 l
 273.383 153.094 l 273.383 159.984 l 285.812 159.984 l 285.812 162.375 l
 h
287.484 162.375 m 295.316 151.82 l 288.41 142.125 l 291.602 142.125 l 295.273
 147.32 l 296.039 148.395 296.582 149.227 296.906 149.805 c 297.355 149.07
 297.891 148.301 298.508 147.5 c 302.582 142.125 l 305.496 142.125 l 298.383
 151.668 l 306.047 162.375 l 302.734 162.375 l 297.637 155.152 l 297.352
 154.738 297.059 154.285 296.754 153.797 c 296.301 154.535 295.98 155.039
 295.785 155.316 c 290.703 162.375 l h
287.484 162.375 m f
336.969 121.125 m 336.969 100.875 l 341 100.875 l 345.797 115.215 l 346.238
 116.547 346.559 117.547 346.762 118.211 c 346.992 117.473 347.352 116.391
 347.84 114.965 c 352.688 100.875 l 356.293 100.875 l 356.293 121.125 l 
353.711 121.125 l 353.711 104.176 l 347.824 121.125 l 345.406 121.125 l 
339.551 103.887 l 339.551 121.125 l h
360.699 121.125 m 360.699 100.875 l 375.34 100.875 l 375.34 103.266 l 363.379
 103.266 l 363.379 109.465 l 374.582 109.465 l 374.582 111.844 l 363.379
 111.844 l 363.379 118.734 l 375.812 118.734 l 375.812 121.125 l h
379.457 121.125 m 379.457 100.875 l 383.492 100.875 l 388.285 115.215 l
 388.727 116.547 389.047 117.547 389.25 118.211 c 389.48 117.473 389.84 
116.391 390.328 114.965 c 395.176 100.875 l 398.781 100.875 l 398.781 121.125
 l 396.199 121.125 l 396.199 104.176 l 390.312 121.125 l 387.898 121.125
 l 382.039 103.887 l 382.039 121.125 l h
379.457 121.125 m f
336.969 162.375 m 336.969 142.125 l 341 142.125 l 345.797 156.465 l 346.238
 157.797 346.559 158.797 346.762 159.461 c 346.992 158.723 347.352 157.641
 347.84 156.215 c 352.688 142.125 l 356.293 142.125 l 356.293 162.375 l 
353.711 162.375 l 353.711 145.426 l 347.824 162.375 l 345.406 162.375 l 
339.551 145.137 l 339.551 162.375 l h
360.699 162.375 m 360.699 142.125 l 375.34 142.125 l 375.34 144.516 l 363.379
 144.516 l 363.379 150.715 l 374.582 150.715 l 374.582 153.094 l 363.379
 153.094 l 363.379 159.984 l 375.812 159.984 l 375.812 162.375 l h
379.457 162.375 m 379.457 142.125 l 383.492 142.125 l 388.285 156.465 l
 388.727 157.797 389.047 158.797 389.25 159.461 c 389.48 158.723 389.84 
157.641 390.328 156.215 c 395.176 142.125 l 398.781 142.125 l 398.781 162.375
 l 396.199 162.375 l 396.199 145.426 l 390.312 162.375 l 387.898 162.375
 l 382.039 145.137 l 382.039 162.375 l h
379.457 162.375 m f
430.895 121.125 m 425.523 100.875 l 428.273 100.875 l 431.352 114.148 l
 431.684 115.539 431.969 116.922 432.207 118.293 c 432.723 116.129 433.027
 114.883 433.121 114.551 c 436.973 100.875 l 440.207 100.875 l 443.105 111.125
 l 443.836 113.664 444.359 116.055 444.684 118.293 c 444.941 117.012 445.277
 115.543 445.691 113.887 c 448.867 100.875 l 451.562 100.875 l 446.008 121.125
 l 443.426 121.125 l 439.156 105.695 l 438.797 104.406 438.586 103.613 438.52
 103.32 c 438.309 104.25 438.109 105.043 437.926 105.695 c 433.633 121.125
 l h
453.938 121.125 m 453.938 100.875 l 461.535 100.875 l 463.082 100.875 464.32
 101.078 465.258 101.488 c 466.191 101.898 466.922 102.531 467.453 103.383
 c 467.98 104.234 468.246 105.125 468.246 106.055 c 468.246 106.922 468.012
 107.734 467.543 108.5 c 467.07 109.266 466.363 109.883 465.414 110.352 
c 466.641 110.711 467.582 111.324 468.238 112.188 c 468.898 113.055 469.227
 114.074 469.227 115.254 c 469.227 116.203 469.027 117.086 468.625 117.898
 c 468.227 118.715 467.73 119.344 467.141 119.785 c 466.551 120.227 465.812
 120.562 464.926 120.785 c 464.035 121.012 462.945 121.125 461.656 121.125
 c h
456.617 109.383 m 460.996 109.383 l 462.184 109.383 463.035 109.305 463.551
 109.148 c 464.23 108.945 464.746 108.609 465.09 108.141 c 465.438 107.672
 465.609 107.082 465.609 106.371 c 465.609 105.699 465.445 105.109 465.125
 104.598 c 464.805 104.086 464.344 103.738 463.742 103.547 c 463.145 103.359
 462.117 103.266 460.664 103.266 c 456.617 103.266 l h
456.617 118.734 m 461.656 118.734 l 462.523 118.734 463.133 118.703 463.48
 118.637 c 464.098 118.527 464.613 118.344 465.027 118.086 c 465.441 117.828
 465.785 117.453 466.051 116.961 c 466.316 116.469 466.453 115.898 466.453
 115.254 c 466.453 114.5 466.258 113.844 465.871 113.285 c 465.484 112.73
 464.949 112.336 464.262 112.113 c 463.574 111.887 462.59 111.773 461.297
 111.773 c 456.617 111.773 l h
456.617 118.734 m f
430.895 162.375 m 425.523 142.125 l 428.273 142.125 l 431.352 155.398 l
 431.684 156.789 431.969 158.172 432.207 159.543 c 432.723 157.379 433.027
 156.133 433.121 155.801 c 436.973 142.125 l 440.207 142.125 l 443.105 152.375
 l 443.836 154.914 444.359 157.305 444.684 159.543 c 444.941 158.262 445.277
 156.793 445.691 155.137 c 448.867 142.125 l 451.562 142.125 l 446.008 162.375
 l 443.426 162.375 l 439.156 146.945 l 438.797 145.656 438.586 144.863 438.52
 144.57 c 438.309 145.5 438.109 146.293 437.926 146.945 c 433.633 162.375
 l h
453.938 162.375 m 453.938 142.125 l 461.535 142.125 l 463.082 142.125 464.32
 142.328 465.258 142.738 c 466.191 143.148 466.922 143.781 467.453 144.633
 c 467.98 145.484 468.246 146.375 468.246 147.305 c 468.246 148.172 468.012
 148.984 467.543 149.75 c 467.07 150.516 466.363 151.133 465.414 151.602
 c 466.641 151.961 467.582 152.574 468.238 153.438 c 468.898 154.305 469.227
 155.324 469.227 156.504 c 469.227 157.453 469.027 158.336 468.625 159.148
 c 468.227 159.965 467.73 160.594 467.141 161.035 c 466.551 161.477 465.812
 161.812 464.926 162.035 c 464.035 162.262 462.945 162.375 461.656 162.375
 c h
456.617 150.633 m 460.996 150.633 l 462.184 150.633 463.035 150.555 463.551
 150.398 c 464.23 150.195 464.746 149.859 465.09 149.391 c 465.438 148.922
 465.609 148.332 465.609 147.621 c 465.609 146.949 465.445 146.359 465.125
 145.848 c 464.805 145.336 464.344 144.988 463.742 144.797 c 463.145 144.609
 462.117 144.516 460.664 144.516 c 456.617 144.516 l h
456.617 159.984 m 461.656 159.984 l 462.523 159.984 463.133 159.953 463.48
 159.887 c 464.098 159.777 464.613 159.594 465.027 159.336 c 465.441 159.078
 465.785 158.703 466.051 158.211 c 466.316 157.719 466.453 157.148 466.453
 156.504 c 466.453 155.75 466.258 155.094 465.871 154.535 c 465.484 153.98
 464.949 153.586 464.262 153.363 c 463.574 153.137 462.59 153.023 461.297
 153.023 c 456.617 153.023 l h
456.617 159.984 m f
0 0 1 rg
88.5 90.75 2.25 82.5 re f
0 g
198.281 203.625 m 198.281 183.375 l 200.961 183.375 l 200.961 203.625 l
 h
205.809 203.625 m 205.809 183.375 l 219.469 183.375 l 219.469 185.766 l
 208.488 185.766 l 208.488 192.035 l 217.992 192.035 l 217.992 194.426 l
 208.488 194.426 l 208.488 203.625 l h
205.809 203.625 m f
198.281 244.875 m 198.281 224.625 l 200.961 224.625 l 200.961 244.875 l
 h
205.809 244.875 m 205.809 224.625 l 219.469 224.625 l 219.469 227.016 l
 208.488 227.016 l 208.488 233.285 l 217.992 233.285 l 217.992 235.676 l
 208.488 235.676 l 208.488 244.875 l h
205.809 244.875 m f
276.309 203.625 m 276.309 183.375 l 278.988 183.375 l 278.988 203.625 l
 h
283.699 203.625 m 283.699 183.375 l 290.676 183.375 l 292.25 183.375 293.453
 183.473 294.281 183.664 c 295.441 183.934 296.43 184.414 297.25 185.117
 c 298.32 186.02 299.117 187.172 299.648 188.574 c 300.176 189.98 300.441
 191.586 300.441 193.391 c 300.441 194.926 300.262 196.289 299.902 197.477
 c 299.543 198.668 299.082 199.648 298.52 200.426 c 297.961 201.207 297.344
 201.816 296.676 202.266 c 296.008 202.711 295.203 203.051 294.258 203.281
 c 293.316 203.512 292.23 203.625 291.008 203.625 c h
286.379 201.234 m 290.703 201.234 l 292.039 201.234 293.086 201.109 293.844
 200.863 c 294.605 200.613 295.211 200.266 295.66 199.812 c 296.297 199.176
 296.793 198.324 297.145 197.25 c 297.5 196.176 297.68 194.875 297.68 193.348
 c 297.68 191.23 297.332 189.602 296.637 188.465 c 295.941 187.328 295.094
 186.566 294.102 186.18 c 293.383 185.902 292.227 185.766 290.633 185.766
 c 286.379 185.766 l h
286.379 201.234 m f
276.309 244.875 m 276.309 224.625 l 278.988 224.625 l 278.988 244.875 l
 h
283.699 244.875 m 283.699 224.625 l 290.676 224.625 l 292.25 224.625 293.453
 224.723 294.281 224.914 c 295.441 225.184 296.43 225.664 297.25 226.367
 c 298.32 227.27 299.117 228.422 299.648 229.824 c 300.176 231.23 300.441
 232.836 300.441 234.641 c 300.441 236.176 300.262 237.539 299.902 238.727
 c 299.543 239.918 299.082 240.898 298.52 241.676 c 297.961 242.457 297.344
 243.066 296.676 243.516 c 296.008 243.961 295.203 244.301 294.258 244.531
 c 293.316 244.762 292.23 244.875 291.008 244.875 c h
286.379 242.484 m 290.703 242.484 l 292.039 242.484 293.086 242.359 293.844
 242.113 c 294.605 241.863 295.211 241.516 295.66 241.062 c 296.297 240.426
 296.793 239.574 297.145 238.5 c 297.5 237.426 297.68 236.125 297.68 234.598
 c 297.68 232.48 297.332 230.852 296.637 229.715 c 295.941 228.578 295.094
 227.816 294.102 227.43 c 293.383 227.152 292.227 227.016 290.633 227.016
 c 286.379 227.016 l h
286.379 242.484 m f
350.203 203.625 m 350.203 183.375 l 364.844 183.375 l 364.844 185.766 l
 352.883 185.766 l 352.883 191.965 l 364.082 191.965 l 364.082 194.344 l
 352.883 194.344 l 352.883 201.234 l 365.312 201.234 l 365.312 203.625 l
 h
366.984 203.625 m 374.816 193.07 l 367.91 183.375 l 371.102 183.375 l 374.773
 188.57 l 375.539 189.645 376.082 190.477 376.406 191.055 c 376.855 190.32
 377.391 189.551 378.008 188.75 c 382.082 183.375 l 384.996 183.375 l 377.883
 192.918 l 385.547 203.625 l 382.234 203.625 l 377.137 196.402 l 376.852
 195.988 376.559 195.535 376.254 195.047 c 375.801 195.785 375.48 196.289
 375.285 196.566 c 370.203 203.625 l h
366.984 203.625 m f
350.203 244.875 m 350.203 224.625 l 364.844 224.625 l 364.844 227.016 l
 352.883 227.016 l 352.883 233.215 l 364.082 233.215 l 364.082 235.594 l
 352.883 235.594 l 352.883 242.484 l 365.312 242.484 l 365.312 244.875 l
 h
366.984 244.875 m 374.816 234.32 l 367.91 224.625 l 371.102 224.625 l 374.773
 229.82 l 375.539 230.895 376.082 231.727 376.406 232.305 c 376.855 231.57
 377.391 230.801 378.008 230 c 382.082 224.625 l 384.996 224.625 l 377.883
 234.168 l 385.547 244.875 l 382.234 244.875 l 377.137 237.652 l 376.852
 237.238 376.559 236.785 376.254 236.297 c 375.801 237.035 375.48 237.539
 375.285 237.816 c 370.203 244.875 l h
366.984 244.875 m f
416.469 203.625 m 416.469 183.375 l 420.5 183.375 l 425.297 197.715 l 425.738
 199.047 426.059 200.047 426.262 200.711 c 426.492 199.973 426.852 198.891
 427.34 197.465 c 432.188 183.375 l 435.793 183.375 l 435.793 203.625 l 
433.211 203.625 l 433.211 186.676 l 427.324 203.625 l 424.906 203.625 l 
419.051 186.387 l 419.051 203.625 l h
440.199 203.625 m 440.199 183.375 l 454.84 183.375 l 454.84 185.766 l 442.879
 185.766 l 442.879 191.965 l 454.082 191.965 l 454.082 194.344 l 442.879
 194.344 l 442.879 201.234 l 455.312 201.234 l 455.312 203.625 l h
458.957 203.625 m 458.957 183.375 l 462.992 183.375 l 467.785 197.715 l
 468.227 199.047 468.547 200.047 468.75 200.711 c 468.98 199.973 469.34 
198.891 469.828 197.465 c 474.676 183.375 l 478.281 183.375 l 478.281 203.625
 l 475.699 203.625 l 475.699 186.676 l 469.812 203.625 l 467.398 203.625
 l 461.539 186.387 l 461.539 203.625 l h
458.957 203.625 m f
416.469 244.875 m 416.469 224.625 l 420.5 224.625 l 425.297 238.965 l 425.738
 240.297 426.059 241.297 426.262 241.961 c 426.492 241.223 426.852 240.141
 427.34 238.715 c 432.188 224.625 l 435.793 224.625 l 435.793 244.875 l 
433.211 244.875 l 433.211 227.926 l 427.324 244.875 l 424.906 244.875 l 
419.051 227.637 l 419.051 244.875 l h
440.199 244.875 m 440.199 224.625 l 454.84 224.625 l 454.84 227.016 l 442.879
 227.016 l 442.879 233.215 l 454.082 233.215 l 454.082 235.594 l 442.879
 235.594 l 442.879 242.484 l 455.312 242.484 l 455.312 244.875 l h
458.957 244.875 m 458.957 224.625 l 462.992 224.625 l 467.785 238.965 l
 468.227 240.297 468.547 241.297 468.75 241.961 c 468.98 241.223 469.34 
240.141 469.828 238.715 c 474.676 224.625 l 478.281 224.625 l 478.281 244.875
 l 475.699 244.875 l 475.699 227.926 l 469.812 244.875 l 467.398 244.875
 l 461.539 227.637 l 461.539 244.875 l h
458.957 244.875 m f
510.395 203.625 m 505.023 183.375 l 507.773 183.375 l 510.852 196.648 l
 511.184 198.039 511.469 199.422 511.707 200.793 c 512.223 198.629 512.527
 197.383 512.621 197.051 c 516.473 183.375 l 519.707 183.375 l 522.605 193.625
 l 523.336 196.164 523.859 198.555 524.184 200.793 c 524.441 199.512 524.777
 198.043 525.191 196.387 c 528.367 183.375 l 531.062 183.375 l 525.508 203.625
 l 522.926 203.625 l 518.656 188.195 l 518.297 186.906 518.086 186.113 518.02
 185.82 c 517.809 186.75 517.609 187.543 517.426 188.195 c 513.133 203.625
 l h
533.438 203.625 m 533.438 183.375 l 541.035 183.375 l 542.582 183.375 543.82
 183.578 544.758 183.988 c 545.691 184.398 546.422 185.031 546.953 185.883
 c 547.48 186.734 547.746 187.625 547.746 188.555 c 547.746 189.422 547.512
 190.234 547.043 191 c 546.57 191.766 545.863 192.383 544.914 192.852 c 
546.141 193.211 547.082 193.824 547.738 194.688 c 548.398 195.555 548.727
 196.574 548.727 197.754 c 548.727 198.703 548.527 199.586 548.125 200.398
 c 547.727 201.215 547.23 201.844 546.641 202.285 c 546.051 202.727 545.312
 203.062 544.426 203.285 c 543.535 203.512 542.445 203.625 541.156 203.625
 c h
536.117 191.883 m 540.496 191.883 l 541.684 191.883 542.535 191.805 543.051
 191.648 c 543.73 191.445 544.246 191.109 544.59 190.641 c 544.938 190.172
 545.109 189.582 545.109 188.871 c 545.109 188.199 544.945 187.609 544.625
 187.098 c 544.305 186.586 543.844 186.238 543.242 186.047 c 542.645 185.859
 541.617 185.766 540.164 185.766 c 536.117 185.766 l h
536.117 201.234 m 541.156 201.234 l 542.023 201.234 542.633 201.203 542.98
 201.137 c 543.598 201.027 544.113 200.844 544.527 200.586 c 544.941 200.328
 545.285 199.953 545.551 199.461 c 545.816 198.969 545.953 198.398 545.953
 197.754 c 545.953 197 545.758 196.344 545.371 195.785 c 544.984 195.23 
544.449 194.836 543.762 194.613 c 543.074 194.387 542.09 194.273 540.797
 194.273 c 536.117 194.273 l h
536.117 201.234 m f
510.395 244.875 m 505.023 224.625 l 507.773 224.625 l 510.852 237.898 l
 511.184 239.289 511.469 240.672 511.707 242.043 c 512.223 239.879 512.527
 238.633 512.621 238.301 c 516.473 224.625 l 519.707 224.625 l 522.605 234.875
 l 523.336 237.414 523.859 239.805 524.184 242.043 c 524.441 240.762 524.777
 239.293 525.191 237.637 c 528.367 224.625 l 531.062 224.625 l 525.508 244.875
 l 522.926 244.875 l 518.656 229.445 l 518.297 228.156 518.086 227.363 518.02
 227.07 c 517.809 228 517.609 228.793 517.426 229.445 c 513.133 244.875 
l h
533.438 244.875 m 533.438 224.625 l 541.035 224.625 l 542.582 224.625 543.82
 224.828 544.758 225.238 c 545.691 225.648 546.422 226.281 546.953 227.133
 c 547.48 227.984 547.746 228.875 547.746 229.805 c 547.746 230.672 547.512
 231.484 547.043 232.25 c 546.57 233.016 545.863 233.633 544.914 234.102
 c 546.141 234.461 547.082 235.074 547.738 235.938 c 548.398 236.805 548.727
 237.824 548.727 239.004 c 548.727 239.953 548.527 240.836 548.125 241.648
 c 547.727 242.465 547.23 243.094 546.641 243.535 c 546.051 243.977 545.312
 244.312 544.426 244.535 c 543.535 244.762 542.445 244.875 541.156 244.875
 c h
536.117 233.133 m 540.496 233.133 l 541.684 233.133 542.535 233.055 543.051
 232.898 c 543.73 232.695 544.246 232.359 544.59 231.891 c 544.938 231.422
 545.109 230.832 545.109 230.121 c 545.109 229.449 544.945 228.859 544.625
 228.348 c 544.305 227.836 543.844 227.488 543.242 227.297 c 542.645 227.109
 541.617 227.016 540.164 227.016 c 536.117 227.016 l h
536.117 242.484 m 541.156 242.484 l 542.023 242.484 542.633 242.453 542.98
 242.387 c 543.598 242.277 544.113 242.094 544.527 241.836 c 544.941 241.578
 545.285 241.203 545.551 240.711 c 545.816 240.219 545.953 239.648 545.953
 239.004 c 545.953 238.25 545.758 237.594 545.371 237.035 c 544.984 236.48
 544.449 236.086 543.762 235.863 c 543.074 235.637 542.09 235.523 540.797
 235.523 c 536.117 235.523 l h
536.117 242.484 m f
0 0 1 rg
168 173.25 2.25 82.5 re f
0 g
277.781 286.125 m 277.781 265.875 l 280.461 265.875 l 280.461 286.125 l
 h
285.309 286.125 m 285.309 265.875 l 298.969 265.875 l 298.969 268.266 l
 287.988 268.266 l 287.988 274.535 l 297.492 274.535 l 297.492 276.926 l
 287.988 276.926 l 287.988 286.125 l h
285.309 286.125 m f
277.781 327.375 m 277.781 307.125 l 280.461 307.125 l 280.461 327.375 l
 h
285.309 327.375 m 285.309 307.125 l 298.969 307.125 l 298.969 309.516 l
 287.988 309.516 l 287.988 315.785 l 297.492 315.785 l 297.492 318.176 l
 287.988 318.176 l 287.988 327.375 l h
285.309 327.375 m f
355.809 286.125 m 355.809 265.875 l 358.488 265.875 l 358.488 286.125 l
 h
363.199 286.125 m 363.199 265.875 l 370.176 265.875 l 371.75 265.875 372.953
 265.973 373.781 266.164 c 374.941 266.434 375.93 266.914 376.75 267.617
 c 377.82 268.52 378.617 269.672 379.148 271.074 c 379.676 272.48 379.941
 274.086 379.941 275.891 c 379.941 277.426 379.762 278.789 379.402 279.977
 c 379.043 281.168 378.582 282.148 378.02 282.926 c 377.461 283.707 376.844
 284.316 376.176 284.766 c 375.508 285.211 374.703 285.551 373.758 285.781
 c 372.816 286.012 371.73 286.125 370.508 286.125 c h
365.879 283.734 m 370.203 283.734 l 371.539 283.734 372.586 283.609 373.344
 283.363 c 374.105 283.113 374.711 282.766 375.16 282.312 c 375.797 281.676
 376.293 280.824 376.645 279.75 c 377 278.676 377.18 277.375 377.18 275.848
 c 377.18 273.73 376.832 272.102 376.137 270.965 c 375.441 269.828 374.594
 269.066 373.602 268.68 c 372.883 268.402 371.727 268.266 370.133 268.266
 c 365.879 268.266 l h
365.879 283.734 m f
355.809 327.375 m 355.809 307.125 l 358.488 307.125 l 358.488 327.375 l
 h
363.199 327.375 m 363.199 307.125 l 370.176 307.125 l 371.75 307.125 372.953
 307.223 373.781 307.414 c 374.941 307.684 375.93 308.164 376.75 308.867
 c 377.82 309.77 378.617 310.922 379.148 312.324 c 379.676 313.73 379.941
 315.336 379.941 317.141 c 379.941 318.676 379.762 320.039 379.402 321.227
 c 379.043 322.418 378.582 323.398 378.02 324.176 c 377.461 324.957 376.844
 325.566 376.176 326.016 c 375.508 326.461 374.703 326.801 373.758 327.031
 c 372.816 327.262 371.73 327.375 370.508 327.375 c h
365.879 324.984 m 370.203 324.984 l 371.539 324.984 372.586 324.859 373.344
 324.613 c 374.105 324.363 374.711 324.016 375.16 323.562 c 375.797 322.926
 376.293 322.074 376.645 321 c 377 319.926 377.18 318.625 377.18 317.098
 c 377.18 314.98 376.832 313.352 376.137 312.215 c 375.441 311.078 374.594
 310.316 373.602 309.93 c 372.883 309.652 371.727 309.516 370.133 309.516
 c 365.879 309.516 l h
365.879 324.984 m f
429.703 286.125 m 429.703 265.875 l 444.344 265.875 l 444.344 268.266 l
 432.383 268.266 l 432.383 274.465 l 443.582 274.465 l 443.582 276.844 l
 432.383 276.844 l 432.383 283.734 l 444.812 283.734 l 444.812 286.125 l
 h
446.484 286.125 m 454.316 275.57 l 447.41 265.875 l 450.602 265.875 l 454.273
 271.07 l 455.039 272.145 455.582 272.977 455.906 273.555 c 456.355 272.82
 456.891 272.051 457.508 271.25 c 461.582 265.875 l 464.496 265.875 l 457.383
 275.418 l 465.047 286.125 l 461.734 286.125 l 456.637 278.902 l 456.352
 278.488 456.059 278.035 455.754 277.547 c 455.301 278.285 454.98 278.789
 454.785 279.066 c 449.703 286.125 l h
446.484 286.125 m f
429.703 327.375 m 429.703 307.125 l 444.344 307.125 l 444.344 309.516 l
 432.383 309.516 l 432.383 315.715 l 443.582 315.715 l 443.582 318.094 l
 432.383 318.094 l 432.383 324.984 l 444.812 324.984 l 444.812 327.375 l
 h
446.484 327.375 m 454.316 316.82 l 447.41 307.125 l 450.602 307.125 l 454.273
 312.32 l 455.039 313.395 455.582 314.227 455.906 314.805 c 456.355 314.07
 456.891 313.301 457.508 312.5 c 461.582 307.125 l 464.496 307.125 l 457.383
 316.668 l 465.047 327.375 l 461.734 327.375 l 456.637 320.152 l 456.352
 319.738 456.059 319.285 455.754 318.797 c 455.301 319.535 454.98 320.039
 454.785 320.316 c 449.703 327.375 l h
446.484 327.375 m f
495.969 286.125 m 495.969 265.875 l 500 265.875 l 504.797 280.215 l 505.238
 281.547 505.559 282.547 505.762 283.211 c 505.992 282.473 506.352 281.391
 506.84 279.965 c 511.688 265.875 l 515.293 265.875 l 515.293 286.125 l 
512.711 286.125 l 512.711 269.176 l 506.824 286.125 l 504.406 286.125 l 
498.551 268.887 l 498.551 286.125 l h
519.699 286.125 m 519.699 265.875 l 534.34 265.875 l 534.34 268.266 l 522.379
 268.266 l 522.379 274.465 l 533.582 274.465 l 533.582 276.844 l 522.379
 276.844 l 522.379 283.734 l 534.812 283.734 l 534.812 286.125 l h
538.457 286.125 m 538.457 265.875 l 542.492 265.875 l 547.285 280.215 l
 547.727 281.547 548.047 282.547 548.25 283.211 c 548.48 282.473 548.84 
281.391 549.328 279.965 c 554.176 265.875 l 557.781 265.875 l 557.781 286.125
 l 555.199 286.125 l 555.199 269.176 l 549.312 286.125 l 546.898 286.125
 l 541.039 268.887 l 541.039 286.125 l h
538.457 286.125 m f
495.969 327.375 m 495.969 307.125 l 500 307.125 l 504.797 321.465 l 505.238
 322.797 505.559 323.797 505.762 324.461 c 505.992 323.723 506.352 322.641
 506.84 321.215 c 511.688 307.125 l 515.293 307.125 l 515.293 327.375 l 
512.711 327.375 l 512.711 310.426 l 506.824 327.375 l 504.406 327.375 l 
498.551 310.137 l 498.551 327.375 l h
519.699 327.375 m 519.699 307.125 l 534.34 307.125 l 534.34 309.516 l 522.379
 309.516 l 522.379 315.715 l 533.582 315.715 l 533.582 318.094 l 522.379
 318.094 l 522.379 324.984 l 534.812 324.984 l 534.812 327.375 l h
538.457 327.375 m 538.457 307.125 l 542.492 307.125 l 547.285 321.465 l
 547.727 322.797 548.047 323.797 548.25 324.461 c 548.48 323.723 548.84 
322.641 549.328 321.215 c 554.176 307.125 l 557.781 307.125 l 557.781 327.375
 l 555.199 327.375 l 555.199 310.426 l 549.312 327.375 l 546.898 327.375
 l 541.039 310.137 l 541.039 327.375 l h
538.457 327.375 m f
589.895 286.125 m 584.523 265.875 l 587.273 265.875 l 590.352 279.148 l
 590.684 280.539 590.969 281.922 591.207 283.293 c 591.723 281.129 592.027
 279.883 592.121 279.551 c 595.973 265.875 l 599.207 265.875 l 602.105 276.125
 l 602.836 278.664 603.359 281.055 603.684 283.293 c 603.941 282.012 604.277
 280.543 604.691 278.887 c 607.867 265.875 l 610.562 265.875 l 605.008 286.125
 l 602.426 286.125 l 598.156 270.695 l 597.797 269.406 597.586 268.613 597.52
 268.32 c 597.309 269.25 597.109 270.043 596.926 270.695 c 592.633 286.125
 l h
612.938 286.125 m 612.938 265.875 l 620.535 265.875 l 622.082 265.875 623.32
 266.078 624.258 266.488 c 625.191 266.898 625.922 267.531 626.453 268.383
 c 626.98 269.234 627.246 270.125 627.246 271.055 c 627.246 271.922 627.012
 272.734 626.543 273.5 c 626.07 274.266 625.363 274.883 624.414 275.352 
c 625.641 275.711 626.582 276.324 627.238 277.188 c 627.898 278.055 628.227
 279.074 628.227 280.254 c 628.227 281.203 628.027 282.086 627.625 282.898
 c 627.227 283.715 626.73 284.344 626.141 284.785 c 625.551 285.227 624.812
 285.562 623.926 285.785 c 623.035 286.012 621.945 286.125 620.656 286.125
 c h
615.617 274.383 m 619.996 274.383 l 621.184 274.383 622.035 274.305 622.551
 274.148 c 623.23 273.945 623.746 273.609 624.09 273.141 c 624.438 272.672
 624.609 272.082 624.609 271.371 c 624.609 270.699 624.445 270.109 624.125
 269.598 c 623.805 269.086 623.344 268.738 622.742 268.547 c 622.145 268.359
 621.117 268.266 619.664 268.266 c 615.617 268.266 l h
615.617 283.734 m 620.656 283.734 l 621.523 283.734 622.133 283.703 622.48
 283.637 c 623.098 283.527 623.613 283.344 624.027 283.086 c 624.441 282.828
 624.785 282.453 625.051 281.961 c 625.316 281.469 625.453 280.898 625.453
 280.254 c 625.453 279.5 625.258 278.844 624.871 278.285 c 624.484 277.73
 623.949 277.336 623.262 277.113 c 622.574 276.887 621.59 276.773 620.297
 276.773 c 615.617 276.773 l h
615.617 283.734 m f
589.895 327.375 m 584.523 307.125 l 587.273 307.125 l 590.352 320.398 l
 590.684 321.789 590.969 323.172 591.207 324.543 c 591.723 322.379 592.027
 321.133 592.121 320.801 c 595.973 307.125 l 599.207 307.125 l 602.105 317.375
 l 602.836 319.914 603.359 322.305 603.684 324.543 c 603.941 323.262 604.277
 321.793 604.691 320.137 c 607.867 307.125 l 610.562 307.125 l 605.008 327.375
 l 602.426 327.375 l 598.156 311.945 l 597.797 310.656 597.586 309.863 597.52
 309.57 c 597.309 310.5 597.109 311.293 596.926 311.945 c 592.633 327.375
 l h
612.938 327.375 m 612.938 307.125 l 620.535 307.125 l 622.082 307.125 623.32
 307.328 624.258 307.738 c 625.191 308.148 625.922 308.781 626.453 309.633
 c 626.98 310.484 627.246 311.375 627.246 312.305 c 627.246 313.172 627.012
 313.984 626.543 314.75 c 626.07 315.516 625.363 316.133 624.414 316.602
 c 625.641 316.961 626.582 317.574 627.238 318.438 c 627.898 319.305 628.227
 320.324 628.227 321.504 c 628.227 322.453 628.027 323.336 627.625 324.148
 c 627.227 324.965 626.73 325.594 626.141 326.035 c 625.551 326.477 624.812
 326.812 623.926 327.035 c 623.035 327.262 621.945 327.375 620.656 327.375
 c h
615.617 315.633 m 619.996 315.633 l 621.184 315.633 622.035 315.555 622.551
 315.398 c 623.23 315.195 623.746 314.859 624.09 314.391 c 624.438 313.922
 624.609 313.332 624.609 312.621 c 624.609 311.949 624.445 311.359 624.125
 310.848 c 623.805 310.336 623.344 309.988 622.742 309.797 c 622.145 309.609
 621.117 309.516 619.664 309.516 c 615.617 309.516 l h
615.617 324.984 m 620.656 324.984 l 621.523 324.984 622.133 324.953 622.48
 324.887 c 623.098 324.777 623.613 324.594 624.027 324.336 c 624.441 324.078
 624.785 323.703 625.051 323.211 c 625.316 322.719 625.453 322.148 625.453
 321.504 c 625.453 320.75 625.258 320.094 624.871 319.535 c 624.484 318.98
 623.949 318.586 623.262 318.363 c 622.574 318.137 621.59 318.023 620.297
 318.023 c 615.617 318.023 l h
615.617 324.984 m f
0 0 1 rg
247.5 255.75 2.25 82.5 re f
0 g
357.281 368.625 m 357.281 348.375 l 359.961 348.375 l 359.961 368.625 l
 h
364.809 368.625 m 364.809 348.375 l 378.469 348.375 l 378.469 350.766 l
 367.488 350.766 l 367.488 357.035 l 376.992 357.035 l 376.992 359.426 l
 367.488 359.426 l 367.488 368.625 l h
364.809 368.625 m f
357.281 409.875 m 357.281 389.625 l 359.961 389.625 l 359.961 409.875 l
 h
364.809 409.875 m 364.809 389.625 l 378.469 389.625 l 378.469 392.016 l
 367.488 392.016 l 367.488 398.285 l 376.992 398.285 l 376.992 400.676 l
 367.488 400.676 l 367.488 409.875 l h
364.809 409.875 m f
435.309 368.625 m 435.309 348.375 l 437.988 348.375 l 437.988 368.625 l
 h
442.699 368.625 m 442.699 348.375 l 449.676 348.375 l 451.25 348.375 452.453
 348.473 453.281 348.664 c 454.441 348.934 455.43 349.414 456.25 350.117
 c 457.32 351.02 458.117 352.172 458.648 353.574 c 459.176 354.98 459.441
 356.586 459.441 358.391 c 459.441 359.926 459.262 361.289 458.902 362.477
 c 458.543 363.668 458.082 364.648 457.52 365.426 c 456.961 366.207 456.344
 366.816 455.676 367.266 c 455.008 367.711 454.203 368.051 453.258 368.281
 c 452.316 368.512 451.23 368.625 450.008 368.625 c h
445.379 366.234 m 449.703 366.234 l 451.039 366.234 452.086 366.109 452.844
 365.863 c 453.605 365.613 454.211 365.266 454.66 364.812 c 455.297 364.176
 455.793 363.324 456.145 362.25 c 456.5 361.176 456.68 359.875 456.68 358.348
 c 456.68 356.23 456.332 354.602 455.637 353.465 c 454.941 352.328 454.094
 351.566 453.102 351.18 c 452.383 350.902 451.227 350.766 449.633 350.766
 c 445.379 350.766 l h
445.379 366.234 m f
435.309 409.875 m 435.309 389.625 l 437.988 389.625 l 437.988 409.875 l
 h
442.699 409.875 m 442.699 389.625 l 449.676 389.625 l 451.25 389.625 452.453
 389.723 453.281 389.914 c 454.441 390.184 455.43 390.664 456.25 391.367
 c 457.32 392.27 458.117 393.422 458.648 394.824 c 459.176 396.23 459.441
 397.836 459.441 399.641 c 459.441 401.176 459.262 402.539 458.902 403.727
 c 458.543 404.918 458.082 405.898 457.52 406.676 c 456.961 407.457 456.344
 408.066 455.676 408.516 c 455.008 408.961 454.203 409.301 453.258 409.531
 c 452.316 409.762 451.23 409.875 450.008 409.875 c h
445.379 407.484 m 449.703 407.484 l 451.039 407.484 452.086 407.359 452.844
 407.113 c 453.605 406.863 454.211 406.516 454.66 406.062 c 455.297 405.426
 455.793 404.574 456.145 403.5 c 456.5 402.426 456.68 401.125 456.68 399.598
 c 456.68 397.48 456.332 395.852 455.637 394.715 c 454.941 393.578 454.094
 392.816 453.102 392.43 c 452.383 392.152 451.227 392.016 449.633 392.016
 c 445.379 392.016 l h
445.379 407.484 m f
509.203 368.625 m 509.203 348.375 l 523.844 348.375 l 523.844 350.766 l
 511.883 350.766 l 511.883 356.965 l 523.082 356.965 l 523.082 359.344 l
 511.883 359.344 l 511.883 366.234 l 524.312 366.234 l 524.312 368.625 l
 h
525.984 368.625 m 533.816 358.07 l 526.91 348.375 l 530.102 348.375 l 533.773
 353.57 l 534.539 354.645 535.082 355.477 535.406 356.055 c 535.855 355.32
 536.391 354.551 537.008 353.75 c 541.082 348.375 l 543.996 348.375 l 536.883
 357.918 l 544.547 368.625 l 541.234 368.625 l 536.137 361.402 l 535.852
 360.988 535.559 360.535 535.254 360.047 c 534.801 360.785 534.48 361.289
 534.285 361.566 c 529.203 368.625 l h
525.984 368.625 m f
509.203 409.875 m 509.203 389.625 l 523.844 389.625 l 523.844 392.016 l
 511.883 392.016 l 511.883 398.215 l 523.082 398.215 l 523.082 400.594 l
 511.883 400.594 l 511.883 407.484 l 524.312 407.484 l 524.312 409.875 l
 h
525.984 409.875 m 533.816 399.32 l 526.91 389.625 l 530.102 389.625 l 533.773
 394.82 l 534.539 395.895 535.082 396.727 535.406 397.305 c 535.855 396.57
 536.391 395.801 537.008 395 c 541.082 389.625 l 543.996 389.625 l 536.883
 399.168 l 544.547 409.875 l 541.234 409.875 l 536.137 402.652 l 535.852
 402.238 535.559 401.785 535.254 401.297 c 534.801 402.035 534.48 402.539
 534.285 402.816 c 529.203 409.875 l h
525.984 409.875 m f
575.469 368.625 m 575.469 348.375 l 579.5 348.375 l 584.297 362.715 l 584.738
 364.047 585.059 365.047 585.262 365.711 c 585.492 364.973 585.852 363.891
 586.34 362.465 c 591.188 348.375 l 594.793 348.375 l 594.793 368.625 l 
592.211 368.625 l 592.211 351.676 l 586.324 368.625 l 583.906 368.625 l 
578.051 351.387 l 578.051 368.625 l h
599.199 368.625 m 599.199 348.375 l 613.84 348.375 l 613.84 350.766 l 601.879
 350.766 l 601.879 356.965 l 613.082 356.965 l 613.082 359.344 l 601.879
 359.344 l 601.879 366.234 l 614.312 366.234 l 614.312 368.625 l h
617.957 368.625 m 617.957 348.375 l 621.992 348.375 l 626.785 362.715 l
 627.227 364.047 627.547 365.047 627.75 365.711 c 627.98 364.973 628.34 
363.891 628.828 362.465 c 633.676 348.375 l 637.281 348.375 l 637.281 368.625
 l 634.699 368.625 l 634.699 351.676 l 628.812 368.625 l 626.398 368.625
 l 620.539 351.387 l 620.539 368.625 l h
617.957 368.625 m f
575.469 409.875 m 575.469 389.625 l 579.5 389.625 l 584.297 403.965 l 584.738
 405.297 585.059 406.297 585.262 406.961 c 585.492 406.223 585.852 405.141
 586.34 403.715 c 591.188 389.625 l 594.793 389.625 l 594.793 409.875 l 
592.211 409.875 l 592.211 392.926 l 586.324 409.875 l 583.906 409.875 l 
578.051 392.637 l 578.051 409.875 l h
599.199 409.875 m 599.199 389.625 l 613.84 389.625 l 613.84 392.016 l 601.879
 392.016 l 601.879 398.215 l 613.082 398.215 l 613.082 400.594 l 601.879
 400.594 l 601.879 407.484 l 614.312 407.484 l 614.312 409.875 l h
617.957 409.875 m 617.957 389.625 l 621.992 389.625 l 626.785 403.965 l
 627.227 405.297 627.547 406.297 627.75 406.961 c 627.98 406.223 628.34 
405.141 628.828 403.715 c 633.676 389.625 l 637.281 389.625 l 637.281 409.875
 l 634.699 409.875 l 634.699 392.926 l 628.812 409.875 l 626.398 409.875
 l 620.539 392.637 l 620.539 409.875 l h
617.957 409.875 m f
669.395 368.625 m 664.023 348.375 l 666.773 348.375 l 669.852 361.648 l
 670.184 363.039 670.469 364.422 670.707 365.793 c 671.223 363.629 671.527
 362.383 671.621 362.051 c 675.473 348.375 l 678.707 348.375 l 681.605 358.625
 l 682.336 361.164 682.859 363.555 683.184 365.793 c 683.441 364.512 683.777
 363.043 684.191 361.387 c 687.367 348.375 l 690.062 348.375 l 684.508 368.625
 l 681.926 368.625 l 677.656 353.195 l 677.297 351.906 677.086 351.113 677.02
 350.82 c 676.809 351.75 676.609 352.543 676.426 353.195 c 672.133 368.625
 l h
692.438 368.625 m 692.438 348.375 l 700.035 348.375 l 701.582 348.375 702.82
 348.578 703.758 348.988 c 704.691 349.398 705.422 350.031 705.953 350.883
 c 706.48 351.734 706.746 352.625 706.746 353.555 c 706.746 354.422 706.512
 355.234 706.043 356 c 705.57 356.766 704.863 357.383 703.914 357.852 c 
705.141 358.211 706.082 358.824 706.738 359.688 c 707.398 360.555 707.727
 361.574 707.727 362.754 c 707.727 363.703 707.527 364.586 707.125 365.398
 c 706.727 366.215 706.23 366.844 705.641 367.285 c 705.051 367.727 704.312
 368.062 703.426 368.285 c 702.535 368.512 701.445 368.625 700.156 368.625
 c h
695.117 356.883 m 699.496 356.883 l 700.684 356.883 701.535 356.805 702.051
 356.648 c 702.73 356.445 703.246 356.109 703.59 355.641 c 703.938 355.172
 704.109 354.582 704.109 353.871 c 704.109 353.199 703.945 352.609 703.625
 352.098 c 703.305 351.586 702.844 351.238 702.242 351.047 c 701.645 350.859
 700.617 350.766 699.164 350.766 c 695.117 350.766 l h
695.117 366.234 m 700.156 366.234 l 701.023 366.234 701.633 366.203 701.98
 366.137 c 702.598 366.027 703.113 365.844 703.527 365.586 c 703.941 365.328
 704.285 364.953 704.551 364.461 c 704.816 363.969 704.953 363.398 704.953
 362.754 c 704.953 362 704.758 361.344 704.371 360.785 c 703.984 360.23 
703.449 359.836 702.762 359.613 c 702.074 359.387 701.09 359.273 699.797
 359.273 c 695.117 359.273 l h
695.117 366.234 m f
669.395 409.875 m 664.023 389.625 l 666.773 389.625 l 669.852 402.898 l
 670.184 404.289 670.469 405.672 670.707 407.043 c 671.223 404.879 671.527
 403.633 671.621 403.301 c 675.473 389.625 l 678.707 389.625 l 681.605 399.875
 l 682.336 402.414 682.859 404.805 683.184 407.043 c 683.441 405.762 683.777
 404.293 684.191 402.637 c 687.367 389.625 l 690.062 389.625 l 684.508 409.875
 l 681.926 409.875 l 677.656 394.445 l 677.297 393.156 677.086 392.363 677.02
 392.07 c 676.809 393 676.609 393.793 676.426 394.445 c 672.133 409.875 
l h
692.438 409.875 m 692.438 389.625 l 700.035 389.625 l 701.582 389.625 702.82
 389.828 703.758 390.238 c 704.691 390.648 705.422 391.281 705.953 392.133
 c 706.48 392.984 706.746 393.875 706.746 394.805 c 706.746 395.672 706.512
 396.484 706.043 397.25 c 705.57 398.016 704.863 398.633 703.914 399.102
 c 705.141 399.461 706.082 400.074 706.738 400.938 c 707.398 401.805 707.727
 402.824 707.727 404.004 c 707.727 404.953 707.527 405.836 707.125 406.648
 c 706.727 407.465 706.23 408.094 705.641 408.535 c 705.051 408.977 704.312
 409.312 703.426 409.535 c 702.535 409.762 701.445 409.875 700.156 409.875
 c h
695.117 398.133 m 699.496 398.133 l 700.684 398.133 701.535 398.055 702.051
 397.898 c 702.73 397.695 703.246 397.359 703.59 396.891 c 703.938 396.422
 704.109 395.832 704.109 395.121 c 704.109 394.449 703.945 393.859 703.625
 393.348 c 703.305 392.836 702.844 392.488 702.242 392.297 c 701.645 392.109
 700.617 392.016 699.164 392.016 c 695.117 392.016 l h
695.117 407.484 m 700.156 407.484 l 701.023 407.484 701.633 407.453 701.98
 407.387 c 702.598 407.277 703.113 407.094 703.527 406.836 c 703.941 406.578
 704.285 406.203 704.551 405.711 c 704.816 405.219 704.953 404.648 704.953
 404.004 c 704.953 403.25 704.758 402.594 704.371 402.035 c 703.984 401.48
 703.449 401.086 702.762 400.863 c 702.074 400.637 701.09 400.523 699.797
 400.523 c 695.117 400.523 l h
695.117 407.484 m f
0 0 1 rg
327 338.25 2.25 82.5 re f
Q Q
showpage
%%Trailer
end
%%EOF
